t	1.00000	tdiag	0.75000	tc	0.05000	T	0.00000	U	1.00000	Vmin	0.00000	Vmax	0.05000	NV	61	mumin	0.00000	mumax	3.00000	Nmu	61
-3.812170	-3.812170	-3.812170	-3.812170	-3.812170	-3.812170	-3.812170	-3.812170	-3.812170	-3.812170	-3.812170	-3.812170	-3.812170	-3.812170	-3.812170	-3.812170	-3.812170	-3.812170	-3.812170	-3.812170	-3.811659	-3.810211	-3.807795	-3.804382	-3.794462	-3.787906	-3.780259	-3.761612	-3.750576	-3.725001	-3.654057	-3.503625	-3.400581	-3.305059	-3.212046	-3.120208	-3.061416	-3.012787	-2.962050	-2.909199	-2.854215	-2.797071	-2.737777	-2.676414	-2.613290	-2.547957	-2.480414	-2.410610	-2.338611	-2.264352	-2.187840	-2.109036	-2.027947	-1.944572	-1.858895	-1.770902	-1.680596	-1.587994	-1.497129	-1.411153	-1.322850	
-3.813403	-3.813403	-3.813403	-3.813403	-3.813403	-3.813403	-3.813403	-3.813403	-3.813403	-3.813403	-3.813403	-3.813403	-3.813403	-3.813403	-3.813403	-3.813403	-3.813403	-3.813403	-3.813403	-3.813403	-3.812949	-3.811553	-3.809184	-3.805813	-3.801412	-3.789425	-3.781795	-3.773047	-3.752124	-3.726523	-3.661269	-3.508655	-3.406350	-3.311464	-3.218849	-3.127061	-3.061416	-3.012787	-2.962050	-2.909199	-2.854215	-2.797071	-2.737777	-2.676414	-2.613290	-2.547957	-2.480414	-2.410610	-2.338611	-2.264352	-2.187840	-2.109036	-2.027947	-1.944572	-1.858895	-1.770902	-1.680596	-1.587994	-1.497129	-1.411153	-1.322850	
-3.814641	-3.814641	-3.814641	-3.814641	-3.814641	-3.814641	-3.814641	-3.814641	-3.814641	-3.814641	-3.814641	-3.814641	-3.814641	-3.814641	-3.814641	-3.814641	-3.814641	-3.814641	-3.814641	-3.814641	-3.814245	-3.812902	-3.810580	-3.807250	-3.802885	-3.790952	-3.783339	-3.774601	-3.753680	-3.728054	-3.667499	-3.513930	-3.412013	-3.317696	-3.225664	-3.133952	-3.061416	-3.012787	-2.962050	-2.909199	-2.854215	-2.797071	-2.737777	-2.676414	-2.613290	-2.547957	-2.480414	-2.410610	-2.338611	-2.264352	-2.187840	-2.109036	-2.027947	-1.944572	-1.858895	-1.770902	-1.680596	-1.587994	-1.497129	-1.411153	-1.322850	
-3.815885	-3.815885	-3.815885	-3.815885	-3.815885	-3.815885	-3.815885	-3.815885	-3.815885	-3.815885	-3.815885	-3.815885	-3.815885	-3.815885	-3.815885	-3.815885	-3.815885	-3.815885	-3.815885	-3.815885	-3.815546	-3.814256	-3.811982	-3.808694	-3.804366	-3.798971	-3.784891	-3.776165	-3.755246	-3.729595	-3.671250	-3.519586	-3.417574	-3.323785	-3.232325	-3.141200	-3.061416	-3.012787	-2.962050	-2.909199	-2.854215	-2.797071	-2.737777	-2.676414	-2.613290	-2.547957	-2.480414	-2.410610	-2.338611	-2.264352	-2.187840	-2.109036	-2.027947	-1.944572	-1.858895	-1.770902	-1.680596	-1.587994	-1.497129	-1.411153	-1.322850	
-3.817134	-3.817134	-3.817134	-3.817134	-3.817134	-3.817134	-3.817134	-3.817134	-3.817134	-3.817134	-3.817134	-3.817134	-3.817134	-3.817134	-3.817134	-3.817134	-3.817134	-3.817134	-3.817134	-3.817134	-3.816854	-3.815618	-3.813391	-3.810146	-3.805853	-3.800489	-3.794028	-3.777736	-3.756821	-3.731146	-3.674922	-3.525167	-3.423118	-3.329759	-3.238841	-3.148238	-3.061416	-3.012787	-2.962050	-2.909199	-2.854215	-2.797071	-2.737777	-2.676414	-2.613290	-2.547957	-2.480414	-2.410610	-2.338611	-2.264352	-2.187840	-2.109036	-2.027947	-1.944572	-1.858895	-1.770902	-1.680596	-1.587994	-1.497129	-1.411153	-1.322850	
-3.818389	-3.818389	-3.818389	-3.818389	-3.818389	-3.818389	-3.818389	-3.818389	-3.818389	-3.818389	-3.818389	-3.818389	-3.818389	-3.818389	-3.818389	-3.818389	-3.818389	-3.818389	-3.818389	-3.818389	-3.818168	-3.816985	-3.814807	-3.811604	-3.807348	-3.802014	-3.795578	-3.779316	-3.758404	-3.736963	-3.678590	-3.530683	-3.429038	-3.335586	-3.245219	-3.155177	-3.064418	-3.012787	-2.962050	-2.909199	-2.854215	-2.797071	-2.737777	-2.676414	-2.613290	-2.547957	-2.480414	-2.410610	-2.338611	-2.264352	-2.187840	-2.109036	-2.027947	-1.944572	-1.858895	-1.770902	-1.680596	-1.587994	-1.497129	-1.411153	-1.322850	
-3.819649	-3.819649	-3.819649	-3.819649	-3.819649	-3.819649	-3.819649	-3.819649	-3.819649	-3.819649	-3.819649	-3.819649	-3.819649	-3.819649	-3.819649	-3.819649	-3.819649	-3.819649	-3.819649	-3.819649	-3.819488	-3.818358	-3.818358	-3.813069	-3.808850	-3.803547	-3.797136	-3.780904	-3.768537	-3.747745	-3.682202	-3.535551	-3.434817	-3.341526	-3.251506	-3.161978	-3.071782	-3.012787	-2.962050	-2.909199	-2.854215	-2.797071	-2.737777	-2.676414	-2.613290	-2.547957	-2.480414	-2.410610	-2.338611	-2.264352	-2.187840	-2.109036	-2.027947	-1.944572	-1.858895	-1.770902	-1.680596	-1.587994	-1.497129	-1.411153	-1.322850	
-3.820915	-3.820915	-3.820915	-3.820915	-3.820915	-3.820915	-3.820915	-3.820915	-3.820915	-3.820915	-3.820915	-3.820915	-3.820915	-3.820915	-3.820915	-3.820915	-3.820915	-3.820915	-3.820915	-3.820915	-3.820915	-3.820813	-3.819738	-3.814540	-3.810359	-3.805087	-3.798701	-3.782501	-3.772646	-3.749338	-3.690552	-3.540951	-3.440481	-3.347735	-3.257428	-3.168643	-3.078958	-3.012787	-2.962050	-2.909199	-2.854215	-2.797071	-2.737777	-2.676414	-2.613290	-2.547957	-2.480414	-2.410610	-2.338611	-2.264352	-2.187840	-2.109036	-2.027947	-1.944572	-1.858895	-1.770902	-1.680596	-1.587994	-1.497129	-1.411153	-1.322850	
-3.822187	-3.822187	-3.822187	-3.822187	-3.822187	-3.822187	-3.822187	-3.822187	-3.822187	-3.822187	-3.822187	-3.822187	-3.822187	-3.822187	-3.822187	-3.822187	-3.822187	-3.822187	-3.822187	-3.822187	-3.822187	-3.822144	-3.821124	-3.819092	-3.811875	-3.806635	-3.800274	-3.785328	-3.774256	-3.750940	-3.694336	-3.545514	-3.446059	-3.353827	-3.264040	-3.175223	-3.086043	-3.012787	-2.962050	-2.909199	-2.854215	-2.797071	-2.737777	-2.676414	-2.613290	-2.547957	-2.480414	-2.410610	-2.338611	-2.264352	-2.187840	-2.109036	-2.027947	-1.944572	-1.858895	-1.770902	-1.680596	-1.587994	-1.497129	-1.411153	-1.322850	
-3.823481	-3.823481	-3.823481	-3.823481	-3.823481	-3.823481	-3.823481	-3.823481	-3.823481	-3.823481	-3.823481	-3.823481	-3.823481	-3.823481	-3.823481	-3.823481	-3.823481	-3.823481	-3.823481	-3.823481	-3.823481	-3.823481	-3.822516	-3.820533	-3.814251	-3.808189	-3.801855	-3.794371	-3.775875	-3.752551	-3.698067	-3.550382	-3.451151	-3.359794	-3.270516	-3.181692	-3.092571	-3.012787	-2.962050	-2.909199	-2.854215	-2.797071	-2.737777	-2.676414	-2.613290	-2.547957	-2.480414	-2.410610	-2.338611	-2.264352	-2.187840	-2.109036	-2.027947	-1.944572	-1.858895	-1.770902	-1.680596	-1.587994	-1.497129	-1.411153	-1.322850	
-3.824824	-3.824824	-3.824824	-3.824824	-3.824824	-3.824824	-3.824824	-3.824824	-3.824824	-3.824824	-3.824824	-3.824824	-3.824824	-3.824824	-3.824824	-3.824824	-3.824824	-3.824824	-3.824824	-3.824824	-3.824824	-3.824824	-3.823914	-3.821981	-3.818995	-3.809752	-3.803443	-3.795979	-3.777502	-3.754171	-3.701801	-3.555993	-3.456310	-3.365624	-3.276701	-3.188549	-3.099613	-3.012787	-2.962050	-2.909199	-2.854215	-2.797071	-2.737777	-2.676414	-2.613290	-2.547957	-2.480414	-2.410610	-2.338611	-2.264352	-2.187840	-2.109036	-2.027947	-1.944572	-1.858895	-1.770902	-1.680596	-1.587994	-1.497129	-1.411153	-1.322850	
-3.826172	-3.826172	-3.826172	-3.826172	-3.826172	-3.826172	-3.826172	-3.826172	-3.826172	-3.826172	-3.826172	-3.826172	-3.826172	-3.826172	-3.826172	-3.826172	-3.826172	-3.826172	-3.826172	-3.826172	-3.826172	-3.826172	-3.825317	-3.823435	-3.820494	-3.816464	-3.805038	-3.797594	-3.779138	-3.755800	-3.705458	-3.560924	-3.461611	-3.370865	-3.283154	-3.195320	-3.106878	-3.017192	-2.962050	-2.909199	-2.854215	-2.797071	-2.737777	-2.676414	-2.613290	-2.547957	-2.480414	-2.410610	-2.338611	-2.264352	-2.187840	-2.109036	-2.027947	-1.944572	-1.858895	-1.770902	-1.680596	-1.587994	-1.497129	-1.411153	-1.322850	
-3.827526	-3.827526	-3.827526	-3.827526	-3.827526	-3.827526	-3.827526	-3.827526	-3.827526	-3.827526	-3.827526	-3.827526	-3.827526	-3.827526	-3.827526	-3.827526	-3.827526	-3.827526	-3.827526	-3.827526	-3.827526	-3.827526	-3.826727	-3.824895	-3.821999	-3.818008	-3.812897	-3.799217	-3.780781	-3.769732	-3.709088	-3.566243	-3.467316	-3.376475	-3.288831	-3.201976	-3.114041	-3.024217	-2.962050	-2.909199	-2.854215	-2.797071	-2.737777	-2.676414	-2.613290	-2.547957	-2.480414	-2.410610	-2.338611	-2.264352	-2.187840	-2.109036	-2.027947	-1.944572	-1.858895	-1.770902	-1.680596	-1.587994	-1.497129	-1.411153	-1.322850	
-3.828886	-3.828886	-3.828886	-3.828886	-3.828886	-3.828886	-3.828886	-3.828886	-3.828886	-3.828886	-3.828886	-3.828886	-3.828886	-3.828886	-3.828886	-3.828886	-3.828886	-3.828886	-3.828886	-3.828886	-3.828886	-3.828886	-3.828143	-3.826362	-3.823510	-3.819559	-3.814481	-3.800848	-3.788130	-3.771384	-3.715969	-3.571493	-3.472902	-3.382203	-3.294617	-3.208528	-3.121079	-3.031091	-2.962050	-2.909199	-2.854215	-2.797071	-2.737777	-2.676414	-2.613290	-2.547957	-2.480414	-2.410610	-2.338611	-2.264352	-2.187840	-2.109036	-2.027947	-1.944572	-1.858895	-1.770902	-1.680596	-1.587994	-1.497129	-1.411153	-1.322850	
-3.830251	-3.830251	-3.830251	-3.830251	-3.830251	-3.830251	-3.830251	-3.830251	-3.830251	-3.830251	-3.830251	-3.830251	-3.830251	-3.830251	-3.830251	-3.830251	-3.830251	-3.830251	-3.830251	-3.830251	-3.830251	-3.830251	-3.829565	-3.827834	-3.825028	-3.821116	-3.816071	-3.802486	-3.793901	-3.773044	-3.719808	-3.575629	-3.478129	-3.388187	-3.300523	-3.214646	-3.127376	-3.037841	-2.962050	-2.909199	-2.854215	-2.797071	-2.737777	-2.676414	-2.613290	-2.547957	-2.480414	-2.410610	-2.338611	-2.264352	-2.187840	-2.109036	-2.027947	-1.944572	-1.858895	-1.770902	-1.680596	-1.587994	-1.497129	-1.411153	-1.322850	
-3.831622	-3.831622	-3.831622	-3.831622	-3.831622	-3.831622	-3.831622	-3.831622	-3.831622	-3.831622	-3.831622	-3.831622	-3.831622	-3.831622	-3.831622	-3.831622	-3.831622	-3.831622	-3.831622	-3.831622	-3.831622	-3.831622	-3.830992	-3.829313	-3.826552	-3.822680	-3.817669	-3.804132	-3.795561	-3.774713	-3.723580	-3.580018	-3.483375	-3.394079	-3.306876	-3.220259	-3.133523	-3.044617	-2.962050	-2.909199	-2.854215	-2.797071	-2.737777	-2.676414	-2.613290	-2.547957	-2.480414	-2.410610	-2.338611	-2.264352	-2.187840	-2.109036	-2.027947	-1.944572	-1.858895	-1.770902	-1.680596	-1.587994	-1.497129	-1.411153	-1.322850	
-3.832998	-3.832998	-3.832998	-3.832998	-3.832998	-3.832998	-3.832998	-3.832998	-3.832998	-3.832998	-3.832998	-3.832998	-3.832998	-3.832998	-3.832998	-3.832998	-3.832998	-3.832998	-3.832998	-3.832998	-3.832998	-3.832998	-3.832426	-3.830798	-3.828083	-3.824251	-3.819273	-3.807561	-3.797229	-3.776391	-3.727287	-3.584925	-3.488171	-3.399505	-3.313160	-3.226980	-3.140242	-3.052269	-2.962050	-2.909199	-2.854215	-2.797071	-2.737777	-2.676414	-2.613290	-2.547957	-2.480414	-2.410610	-2.338611	-2.264352	-2.187840	-2.109036	-2.027947	-1.944572	-1.858895	-1.770902	-1.680596	-1.587994	-1.497129	-1.411153	-1.322850	
-3.834380	-3.834380	-3.834380	-3.834380	-3.834380	-3.834380	-3.834380	-3.834380	-3.834380	-3.834380	-3.834380	-3.834380	-3.834380	-3.834380	-3.834380	-3.834380	-3.834380	-3.834380	-3.834380	-3.834380	-3.834380	-3.834380	-3.834380	-3.832290	-3.829620	-3.825828	-3.820885	-3.814766	-3.798905	-3.778076	-3.730993	-3.589802	-3.493461	-3.405006	-3.318945	-3.233621	-3.147399	-3.059240	-2.968747	-2.909199	-2.854215	-2.797071	-2.737777	-2.676414	-2.613290	-2.547957	-2.480414	-2.410610	-2.338611	-2.264352	-2.187840	-2.109036	-2.027947	-1.944572	-1.858895	-1.770902	-1.680596	-1.587994	-1.497129	-1.411153	-1.322850	
-3.835768	-3.835768	-3.835768	-3.835768	-3.835768	-3.835768	-3.835768	-3.835768	-3.835768	-3.835768	-3.835768	-3.835768	-3.835768	-3.835768	-3.835768	-3.835768	-3.835768	-3.835768	-3.835768	-3.835768	-3.835768	-3.835768	-3.835768	-3.835310	-3.831164	-3.827412	-3.822503	-3.816412	-3.800588	-3.779770	-3.734655	-3.595094	-3.498621	-3.410415	-3.324638	-3.240170	-3.154420	-3.066088	-2.975939	-2.909199	-2.854215	-2.797071	-2.737777	-2.676414	-2.613290	-2.547957	-2.480414	-2.410610	-2.338611	-2.264352	-2.187840	-2.109036	-2.027947	-1.944572	-1.858895	-1.770902	-1.680596	-1.587994	-1.497129	-1.411153	-1.322850	
-3.837161	-3.837161	-3.837161	-3.837161	-3.837161	-3.837161	-3.837161	-3.837161	-3.837161	-3.837161	-3.837161	-3.837161	-3.837161	-3.837161	-3.837161	-3.837161	-3.837161	-3.837161	-3.837161	-3.837161	-3.837161	-3.837161	-3.837161	-3.836761	-3.835290	-3.829003	-3.824129	-3.818066	-3.802279	-3.792513	-3.739219	-3.600319	-3.503553	-3.415340	-3.330546	-3.246385	-3.160706	-3.072843	-2.983021	-2.909199	-2.854215	-2.797071	-2.737777	-2.676414	-2.613290	-2.547957	-2.480414	-2.410610	-2.338611	-2.264352	-2.187840	-2.109036	-2.027947	-1.944572	-1.858895	-1.770902	-1.680596	-1.587994	-1.497129	-1.411153	-1.322850	
-3.838559	-3.838559	-3.838559	-3.838559	-3.838559	-3.838559	-3.838559	-3.838559	-3.838559	-3.838559	-3.838559	-3.838559	-3.838559	-3.838559	-3.838559	-3.838559	-3.838559	-3.838559	-3.838559	-3.838559	-3.838559	-3.838559	-3.838559	-3.838218	-3.836799	-3.834270	-3.825761	-3.819727	-3.803978	-3.794220	-3.743721	-3.604426	-3.508680	-3.420890	-3.336173	-3.252050	-3.166851	-3.079455	-2.990274	-2.909199	-2.854215	-2.797071	-2.737777	-2.676414	-2.613290	-2.547957	-2.480414	-2.410610	-2.338611	-2.264352	-2.187840	-2.109036	-2.027947	-1.944572	-1.858895	-1.770902	-1.680596	-1.587994	-1.497129	-1.411153	-1.322850	
-3.839963	-3.839963	-3.839963	-3.839963	-3.839963	-3.839963	-3.839963	-3.839963	-3.839963	-3.839963	-3.839963	-3.839963	-3.839963	-3.839963	-3.839963	-3.839963	-3.839963	-3.839963	-3.839963	-3.839963	-3.839963	-3.839963	-3.839963	-3.839680	-3.838315	-3.835833	-3.832204	-3.821394	-3.814163	-3.795936	-3.747505	-3.608392	-3.513883	-3.426389	-3.341849	-3.257510	-3.172879	-3.085977	-2.997261	-2.909199	-2.854215	-2.797071	-2.737777	-2.676414	-2.613290	-2.547957	-2.480414	-2.410610	-2.338611	-2.264352	-2.187840	-2.109036	-2.027947	-1.944572	-1.858895	-1.770902	-1.680596	-1.587994	-1.497129	-1.411153	-1.322850	
-3.841372	-3.841372	-3.841372	-3.841372	-3.841372	-3.841372	-3.841372	-3.841372	-3.841372	-3.841372	-3.841372	-3.841372	-3.841372	-3.841372	-3.841372	-3.841372	-3.841372	-3.841372	-3.841372	-3.841372	-3.841372	-3.841372	-3.841372	-3.841148	-3.839836	-3.837401	-3.833814	-3.823069	-3.815861	-3.797659	-3.751268	-3.612321	-3.519056	-3.431900	-3.347554	-3.263470	-3.178921	-3.092556	-3.004122	-2.913725	-2.854215	-2.797071	-2.737777	-2.676414	-2.613290	-2.547957	-2.480414	-2.410610	-2.338611	-2.264352	-2.187840	-2.109036	-2.027947	-1.944572	-1.858895	-1.770902	-1.680596	-1.587994	-1.497129	-1.411153	-1.322850	
-3.842787	-3.842787	-3.842787	-3.842787	-3.842787	-3.842787	-3.842787	-3.842787	-3.842787	-3.842787	-3.842787	-3.842787	-3.842787	-3.842787	-3.842787	-3.842787	-3.842787	-3.842787	-3.842787	-3.842787	-3.842787	-3.842787	-3.842787	-3.842622	-3.841363	-3.838976	-3.835431	-3.824751	-3.817566	-3.799390	-3.755004	-3.616721	-3.523992	-3.437183	-3.353000	-3.270030	-3.185946	-3.099407	-3.010991	-2.920931	-2.854215	-2.797071	-2.737777	-2.676414	-2.613290	-2.547957	-2.480414	-2.410610	-2.338611	-2.264352	-2.187840	-2.109036	-2.027947	-1.944572	-1.858895	-1.770902	-1.680596	-1.587994	-1.497129	-1.411153	-1.322850	
-3.844206	-3.844206	-3.844206	-3.844206	-3.844206	-3.844206	-3.844206	-3.844206	-3.844206	-3.844206	-3.844206	-3.844206	-3.844206	-3.844206	-3.844206	-3.844206	-3.844206	-3.844206	-3.844206	-3.844206	-3.844206	-3.844206	-3.844206	-3.844101	-3.842896	-3.840557	-3.837054	-3.826440	-3.819278	-3.801129	-3.758655	-3.622029	-3.528994	-3.442645	-3.358881	-3.276498	-3.192412	-3.106154	-3.018178	-2.928246	-2.854215	-2.797071	-2.737777	-2.676414	-2.613290	-2.547957	-2.480414	-2.410610	-2.338611	-2.264352	-2.187840	-2.109036	-2.027947	-1.944572	-1.858895	-1.770902	-1.680596	-1.587994	-1.497129	-1.411153	-1.322850	
-3.845632	-3.845632	-3.845632	-3.845632	-3.845632	-3.845632	-3.845632	-3.845632	-3.845632	-3.845632	-3.845632	-3.845632	-3.845632	-3.845632	-3.845632	-3.845632	-3.845632	-3.845632	-3.845632	-3.845632	-3.845632	-3.845632	-3.845632	-3.845586	-3.844435	-3.842145	-3.838684	-3.834023	-3.820997	-3.802875	-3.762525	-3.627475	-3.533615	-3.447874	-3.364639	-3.282214	-3.198572	-3.112806	-3.025311	-2.935761	-2.854215	-2.797071	-2.737777	-2.676414	-2.613290	-2.547957	-2.480414	-2.410610	-2.338611	-2.264352	-2.187840	-2.109036	-2.027947	-1.944572	-1.858895	-1.770902	-1.680596	-1.587994	-1.497129	-1.411153	-1.322850	
-3.847076	-3.847076	-3.847076	-3.847076	-3.847076	-3.847076	-3.847076	-3.847076	-3.847076	-3.847076	-3.847076	-3.847076	-3.847076	-3.847076	-3.847076	-3.847076	-3.847076	-3.847076	-3.847076	-3.847076	-3.847076	-3.847076	-3.847076	-3.847076	-3.845980	-3.843738	-3.840320	-3.835695	-3.822723	-3.804628	-3.766940	-3.631386	-3.537771	-3.453111	-3.370301	-3.287787	-3.204648	-3.119330	-3.032298	-2.943197	-2.854215	-2.797071	-2.737777	-2.676414	-2.613290	-2.547957	-2.480414	-2.410610	-2.338611	-2.264352	-2.187840	-2.109036	-2.027947	-1.944572	-1.858895	-1.770902	-1.680596	-1.587994	-1.497129	-1.411153	-1.322850	
-3.848572	-3.848572	-3.848572	-3.848572	-3.848572	-3.848572	-3.848572	-3.848572	-3.848572	-3.848572	-3.848572	-3.848572	-3.848572	-3.848572	-3.848572	-3.848572	-3.848572	-3.848572	-3.848572	-3.848572	-3.848572	-3.848572	-3.848572	-3.848572	-3.847530	-3.845337	-3.841962	-3.837374	-3.824456	-3.816077	-3.769760	-3.635562	-3.542590	-3.458145	-3.375750	-3.293287	-3.210651	-3.125765	-3.039164	-2.950523	-2.859421	-2.797071	-2.737777	-2.676414	-2.613290	-2.547957	-2.480414	-2.410610	-2.338611	-2.264352	-2.187840	-2.109036	-2.027947	-1.944572	-1.858895	-1.770902	-1.680596	-1.587994	-1.497129	-1.411153	-1.322850	
-3.850073	-3.850073	-3.850073	-3.850073	-3.850073	-3.850073	-3.850073	-3.850073	-3.850073	-3.850073	-3.850073	-3.850073	-3.850073	-3.850073	-3.850073	-3.850073	-3.850073	-3.850073	-3.850073	-3.850073	-3.850073	-3.850073	-3.850073	-3.850073	-3.849086	-3.846943	-3.843610	-3.839060	-3.826197	-3.817835	-3.773533	-3.639558	-3.547709	-3.462840	-3.380851	-3.298849	-3.216615	-3.132104	-3.045906	-2.957695	-2.867078	-2.797071	-2.737777	-2.676414	-2.613290	-2.547957	-2.480414	-2.410610	-2.338611	-2.264352	-2.187840	-2.109036	-2.027947	-1.944572	-1.858895	-1.770902	-1.680596	-1.587994	-1.497129	-1.411153	-1.322850	
-3.851580	-3.851580	-3.851580	-3.851580	-3.851580	-3.851580	-3.851580	-3.851580	-3.851580	-3.851580	-3.851580	-3.851580	-3.851580	-3.851580	-3.851580	-3.851580	-3.851580	-3.851580	-3.851580	-3.851580	-3.851580	-3.851580	-3.851580	-3.851580	-3.850648	-3.848554	-3.845265	-3.840752	-3.830079	-3.819600	-3.777295	-3.643526	-3.552719	-3.467861	-3.385947	-3.304468	-3.222370	-3.138345	-3.052590	-2.964709	-2.874537	-2.797071	-2.737777	-2.676414	-2.613290	-2.547957	-2.480414	-2.410610	-2.338611	-2.264352	-2.187840	-2.109036	-2.027947	-1.944572	-1.858895	-1.770902	-1.680596	-1.587994	-1.497129	-1.411153	-1.322850	
-3.853092	-3.853092	-3.853092	-3.853092	-3.853092	-3.853092	-3.853092	-3.853092	-3.853092	-3.853092	-3.853092	-3.853092	-3.853092	-3.853092	-3.853092	-3.853092	-3.853092	-3.853092	-3.853092	-3.853092	-3.853092	-3.853092	-3.853092	-3.853092	-3.853092	-3.852216	-3.846926	-3.842450	-3.836716	-3.821373	-3.781025	-3.647368	-3.557843	-3.473153	-3.391267	-3.310659	-3.228538	-3.144504	-3.059133	-2.971726	-2.881894	-2.797071	-2.737777	-2.676414	-2.613290	-2.547957	-2.480414	-2.410610	-2.338611	-2.264352	-2.187840	-2.109036	-2.027947	-1.944572	-1.858895	-1.770902	-1.680596	-1.587994	-1.497129	-1.411153	-1.322850	
-3.854610	-3.854610	-3.854610	-3.854610	-3.854610	-3.854610	-3.854610	-3.854610	-3.854610	-3.854610	-3.854610	-3.854610	-3.854610	-3.854610	-3.854610	-3.854610	-3.854610	-3.854610	-3.854610	-3.854610	-3.854610	-3.854610	-3.854610	-3.854610	-3.854610	-3.853790	-3.851795	-3.844155	-3.838452	-3.823152	-3.784678	-3.652219	-3.562486	-3.478537	-3.396986	-3.316358	-3.234655	-3.150918	-3.065579	-2.978519	-2.889092	-2.797071	-2.737777	-2.676414	-2.613290	-2.547957	-2.480414	-2.410610	-2.338611	-2.264352	-2.187840	-2.109036	-2.027947	-1.944572	-1.858895	-1.770902	-1.680596	-1.587994	-1.497129	-1.411153	-1.322850	
-3.856133	-3.856133	-3.856133	-3.856133	-3.856133	-3.856133	-3.856133	-3.856133	-3.856133	-3.856133	-3.856133	-3.856133	-3.856133	-3.856133	-3.856133	-3.856133	-3.856133	-3.856133	-3.856133	-3.856133	-3.856133	-3.856133	-3.856133	-3.856133	-3.856133	-3.855369	-3.853424	-3.845866	-3.840195	-3.824939	-3.788364	-3.656835	-3.566725	-3.483677	-3.402679	-3.321844	-3.240695	-3.157405	-3.072437	-2.985461	-2.896254	-2.804472	-2.737777	-2.676414	-2.613290	-2.547957	-2.480414	-2.410610	-2.338611	-2.264352	-2.187840	-2.109036	-2.027947	-1.944572	-1.858895	-1.770902	-1.680596	-1.587994	-1.497129	-1.411153	-1.322850	
-3.857662	-3.857662	-3.857662	-3.857662	-3.857662	-3.857662	-3.857662	-3.857662	-3.857662	-3.857662	-3.857662	-3.857662	-3.857662	-3.857662	-3.857662	-3.857662	-3.857662	-3.857662	-3.857662	-3.857662	-3.857662	-3.857662	-3.857662	-3.857662	-3.857662	-3.856953	-3.855059	-3.847584	-3.841945	-3.826732	-3.792993	-3.661107	-3.571251	-3.488707	-3.407942	-3.327401	-3.246692	-3.163777	-3.079238	-2.992697	-2.903854	-2.812447	-2.737777	-2.676414	-2.613290	-2.547957	-2.480414	-2.410610	-2.338611	-2.264352	-2.187840	-2.109036	-2.027947	-1.944572	-1.858895	-1.770902	-1.680596	-1.587994	-1.497129	-1.411153	-1.322850	
-3.859195	-3.859195	-3.859195	-3.859195	-3.859195	-3.859195	-3.859195	-3.859195	-3.859195	-3.859195	-3.859195	-3.859195	-3.859195	-3.859195	-3.859195	-3.859195	-3.859195	-3.859195	-3.859195	-3.859195	-3.859195	-3.859195	-3.859195	-3.859195	-3.859195	-3.858544	-3.856700	-3.853632	-3.843701	-3.828533	-3.795560	-3.665262	-3.575590	-3.493466	-3.413059	-3.332928	-3.252544	-3.170075	-3.085925	-2.999807	-2.911324	-2.820288	-2.737777	-2.676414	-2.613290	-2.547957	-2.480414	-2.410610	-2.338611	-2.264352	-2.187840	-2.109036	-2.027947	-1.944572	-1.858895	-1.770902	-1.680596	-1.587994	-1.497129	-1.411153	-1.322850	
-3.860735	-3.860735	-3.860735	-3.860735	-3.860735	-3.860735	-3.860735	-3.860735	-3.860735	-3.860735	-3.860735	-3.860735	-3.860735	-3.860735	-3.860735	-3.860735	-3.860735	-3.860735	-3.860735	-3.860735	-3.860735	-3.860735	-3.860735	-3.860735	-3.860735	-3.860139	-3.858347	-3.855323	-3.845463	-3.838572	-3.797693	-3.669261	-3.579548	-3.498160	-3.418273	-3.338478	-3.258331	-3.176267	-3.092515	-3.006754	-2.918676	-2.828006	-2.737777	-2.676414	-2.613290	-2.547957	-2.480414	-2.410610	-2.338611	-2.264352	-2.187840	-2.109036	-2.027947	-1.944572	-1.858895	-1.770902	-1.680596	-1.587994	-1.497129	-1.411153	-1.322850	
-3.862279	-3.862279	-3.862279	-3.862279	-3.862279	-3.862279	-3.862279	-3.862279	-3.862279	-3.862279	-3.862279	-3.862279	-3.862279	-3.862279	-3.862279	-3.862279	-3.862279	-3.862279	-3.862279	-3.862279	-3.862279	-3.862279	-3.862279	-3.862279	-3.862279	-3.861741	-3.859999	-3.857021	-3.847232	-3.840367	-3.801435	-3.673036	-3.584517	-3.502698	-3.423286	-3.343897	-3.264043	-3.182378	-3.099007	-3.013615	-2.925924	-2.835599	-2.742507	-2.676414	-2.613290	-2.547957	-2.480414	-2.410610	-2.338611	-2.264352	-2.187840	-2.109036	-2.027947	-1.944572	-1.858895	-1.770902	-1.680596	-1.587994	-1.497129	-1.411153	-1.322850	
-3.863829	-3.863829	-3.863829	-3.863829	-3.863829	-3.863829	-3.863829	-3.863829	-3.863829	-3.863829	-3.863829	-3.863829	-3.863829	-3.863829	-3.863829	-3.863829	-3.863829	-3.863829	-3.863829	-3.863829	-3.863829	-3.863829	-3.863829	-3.863829	-3.863829	-3.863348	-3.861658	-3.858725	-3.849008	-3.842169	-3.805172	-3.676917	-3.589342	-3.507174	-3.428257	-3.349239	-3.269699	-3.188411	-3.105406	-3.020399	-2.933022	-2.843066	-2.750297	-2.676414	-2.613290	-2.547957	-2.480414	-2.410610	-2.338611	-2.264352	-2.187840	-2.109036	-2.027947	-1.944572	-1.858895	-1.770902	-1.680596	-1.587994	-1.497129	-1.411153	-1.322850	
-3.865383	-3.865383	-3.865383	-3.865383	-3.865383	-3.865383	-3.865383	-3.865383	-3.865383	-3.865383	-3.865383	-3.865383	-3.865383	-3.865383	-3.865383	-3.865383	-3.865383	-3.865383	-3.865383	-3.865383	-3.865383	-3.865383	-3.865383	-3.865383	-3.865383	-3.864960	-3.863322	-3.860434	-3.850790	-3.843977	-3.808889	-3.680716	-3.593982	-3.512312	-3.433041	-3.354663	-3.275278	-3.194344	-3.111716	-3.027031	-2.940028	-2.850408	-2.757962	-2.676414	-2.613290	-2.547957	-2.480414	-2.410610	-2.338611	-2.264352	-2.187840	-2.109036	-2.027947	-1.944572	-1.858895	-1.770902	-1.680596	-1.587994	-1.497129	-1.411153	-1.322850	
-3.866944	-3.866944	-3.866944	-3.866944	-3.866944	-3.866944	-3.866944	-3.866944	-3.866944	-3.866944	-3.866944	-3.866944	-3.866944	-3.866944	-3.866944	-3.866944	-3.866944	-3.866944	-3.866944	-3.866944	-3.866944	-3.866944	-3.866944	-3.866944	-3.866944	-3.866578	-3.864991	-3.862150	-3.858022	-3.845792	-3.812557	-3.684895	-3.598209	-3.517438	-3.438435	-3.360000	-3.280823	-3.200215	-3.117926	-3.033598	-2.946995	-2.857648	-2.765556	-2.676414	-2.613290	-2.547957	-2.480414	-2.410610	-2.338611	-2.264352	-2.187840	-2.109036	-2.027947	-1.944572	-1.858895	-1.770902	-1.680596	-1.587994	-1.497129	-1.411153	-1.322850	
-3.868509	-3.868509	-3.868509	-3.868509	-3.868509	-3.868509	-3.868509	-3.868509	-3.868509	-3.868509	-3.868509	-3.868509	-3.868509	-3.868509	-3.868509	-3.868509	-3.868509	-3.868509	-3.868509	-3.868509	-3.868509	-3.868509	-3.868509	-3.868509	-3.868509	-3.868201	-3.866667	-3.863871	-3.859783	-3.847614	-3.816648	-3.689028	-3.602631	-3.522201	-3.443632	-3.365234	-3.286691	-3.206172	-3.124055	-3.040050	-2.953698	-2.864778	-2.773070	-2.678343	-2.613290	-2.547957	-2.480414	-2.410610	-2.338611	-2.264352	-2.187840	-2.109036	-2.027947	-1.944572	-1.858895	-1.770902	-1.680596	-1.587994	-1.497129	-1.411153	-1.322850	
-3.870079	-3.870079	-3.870079	-3.870079	-3.870079	-3.870079	-3.870079	-3.870079	-3.870079	-3.870079	-3.870079	-3.870079	-3.870079	-3.870079	-3.870079	-3.870079	-3.870079	-3.870079	-3.870079	-3.870079	-3.870079	-3.870079	-3.870079	-3.870079	-3.870079	-3.870079	-3.869830	-3.865598	-3.861550	-3.849442	-3.820872	-3.693334	-3.606811	-3.526941	-3.448787	-3.370751	-3.292485	-3.212440	-3.130577	-3.046859	-2.960820	-2.872337	-2.781056	-2.686674	-2.613290	-2.547957	-2.480414	-2.410610	-2.338611	-2.264352	-2.187840	-2.109036	-2.027947	-1.944572	-1.858895	-1.770902	-1.680596	-1.587994	-1.497129	-1.411153	-1.322850	
-3.871655	-3.871655	-3.871655	-3.871655	-3.871655	-3.871655	-3.871655	-3.871655	-3.871655	-3.871655	-3.871655	-3.871655	-3.871655	-3.871655	-3.871655	-3.871655	-3.871655	-3.871655	-3.871655	-3.871655	-3.871655	-3.871655	-3.871655	-3.871655	-3.871655	-3.871655	-3.871464	-3.867332	-3.863324	-3.851276	-3.822748	-3.697016	-3.610962	-3.531545	-3.453821	-3.376174	-3.298191	-3.218433	-3.137035	-3.053662	-2.968036	-2.879838	-2.788892	-2.694906	-2.613290	-2.547957	-2.480414	-2.410610	-2.338611	-2.264352	-2.187840	-2.109036	-2.027947	-1.944572	-1.858895	-1.770902	-1.680596	-1.587994	-1.497129	-1.411153	-1.322850	
-3.873235	-3.873235	-3.873235	-3.873235	-3.873235	-3.873235	-3.873235	-3.873235	-3.873235	-3.873235	-3.873235	-3.873235	-3.873235	-3.873235	-3.873235	-3.873235	-3.873235	-3.873235	-3.873235	-3.873235	-3.873235	-3.873235	-3.873235	-3.873235	-3.873235	-3.873235	-3.873103	-3.869070	-3.865103	-3.853117	-3.824631	-3.700879	-3.615010	-3.536061	-3.458826	-3.381541	-3.303851	-3.224449	-3.143405	-3.060368	-2.975066	-2.887219	-2.796583	-2.702990	-2.613290	-2.547957	-2.480414	-2.410610	-2.338611	-2.264352	-2.187840	-2.109036	-2.027947	-1.944572	-1.858895	-1.770902	-1.680596	-1.587994	-1.497129	-1.411153	-1.322850	
-3.874821	-3.874821	-3.874821	-3.874821	-3.874821	-3.874821	-3.874821	-3.874821	-3.874821	-3.874821	-3.874821	-3.874821	-3.874821	-3.874821	-3.874821	-3.874821	-3.874821	-3.874821	-3.874821	-3.874821	-3.874821	-3.874821	-3.874821	-3.874821	-3.874821	-3.874821	-3.874748	-3.870815	-3.866889	-3.861614	-3.827277	-3.704795	-3.619149	-3.540672	-3.463726	-3.386925	-3.309433	-3.230390	-3.149687	-3.066988	-2.981997	-2.894490	-2.804147	-2.710954	-2.614766	-2.547957	-2.480414	-2.410610	-2.338611	-2.264352	-2.187840	-2.109036	-2.027947	-1.944572	-1.858895	-1.770902	-1.680596	-1.587994	-1.497129	-1.411153	-1.322850	
-3.876412	-3.876412	-3.876412	-3.876412	-3.876412	-3.876412	-3.876412	-3.876412	-3.876412	-3.876412	-3.876412	-3.876412	-3.876412	-3.876412	-3.876412	-3.876412	-3.876412	-3.876412	-3.876412	-3.876412	-3.876412	-3.876412	-3.876412	-3.876412	-3.876412	-3.876412	-3.876398	-3.875127	-3.868680	-3.863440	-3.831009	-3.708530	-3.623597	-3.544971	-3.468563	-3.392371	-3.314936	-3.236254	-3.155884	-3.073527	-2.988805	-2.901660	-2.811636	-2.718804	-2.622982	-2.547957	-2.480414	-2.410610	-2.338611	-2.264352	-2.187840	-2.109036	-2.027947	-1.944572	-1.858895	-1.770902	-1.680596	-1.587994	-1.497129	-1.411153	-1.322850	
-3.878053	-3.878053	-3.878053	-3.878053	-3.878053	-3.878053	-3.878053	-3.878053	-3.878053	-3.878053	-3.878053	-3.878053	-3.878053	-3.878053	-3.878053	-3.878053	-3.878053	-3.878053	-3.878053	-3.878053	-3.878053	-3.878053	-3.878053	-3.878053	-3.878053	-3.878053	-3.878053	-3.876836	-3.870477	-3.865272	-3.834687	-3.712312	-3.628018	-3.549510	-3.473389	-3.397457	-3.320360	-3.242031	-3.162024	-3.079875	-2.995594	-2.908711	-2.818993	-2.726533	-2.631110	-2.547957	-2.480414	-2.410610	-2.338611	-2.264352	-2.187840	-2.109036	-2.027947	-1.944572	-1.858895	-1.770902	-1.680596	-1.587994	-1.497129	-1.411153	-1.322850	
-3.879713	-3.879713	-3.879713	-3.879713	-3.879713	-3.879713	-3.879713	-3.879713	-3.879713	-3.879713	-3.879713	-3.879713	-3.879713	-3.879713	-3.879713	-3.879713	-3.879713	-3.879713	-3.879713	-3.879713	-3.879713	-3.879713	-3.879713	-3.879713	-3.879713	-3.879713	-3.879713	-3.878550	-3.872281	-3.867110	-3.838387	-3.716000	-3.632408	-3.553883	-3.478117	-3.402485	-3.325768	-3.247747	-3.168030	-3.086279	-3.002233	-2.915606	-2.826285	-2.734172	-2.639124	-2.547957	-2.480414	-2.410610	-2.338611	-2.264352	-2.187840	-2.109036	-2.027947	-1.944572	-1.858895	-1.770902	-1.680596	-1.587994	-1.497129	-1.411153	-1.322850	
-3.881379	-3.881379	-3.881379	-3.881379	-3.881379	-3.881379	-3.881379	-3.881379	-3.881379	-3.881379	-3.881379	-3.881379	-3.881379	-3.881379	-3.881379	-3.881379	-3.881379	-3.881379	-3.881379	-3.881379	-3.881379	-3.881379	-3.881379	-3.881379	-3.881379	-3.881379	-3.881379	-3.880270	-3.874090	-3.868955	-3.842337	-3.719759	-3.636521	-3.558561	-3.482787	-3.407458	-3.331085	-3.253396	-3.173984	-3.092535	-3.008867	-2.922519	-2.833455	-2.741686	-2.646994	-2.549309	-2.480414	-2.410610	-2.338611	-2.264352	-2.187840	-2.109036	-2.027947	-1.944572	-1.858895	-1.770902	-1.680596	-1.587994	-1.497129	-1.411153	-1.322850	
-3.883050	-3.883050	-3.883050	-3.883050	-3.883050	-3.883050	-3.883050	-3.883050	-3.883050	-3.883050	-3.883050	-3.883050	-3.883050	-3.883050	-3.883050	-3.883050	-3.883050	-3.883050	-3.883050	-3.883050	-3.883050	-3.883050	-3.883050	-3.883050	-3.883050	-3.883050	-3.883050	-3.881995	-3.879625	-3.870805	-3.846956	-3.723306	-3.640600	-3.563054	-3.487517	-3.412309	-3.336336	-3.258956	-3.179880	-3.098702	-3.015264	-2.929402	-2.840852	-2.749462	-2.655136	-2.575329	-2.480414	-2.410610	-2.338611	-2.264352	-2.187840	-2.109036	-2.027947	-1.944572	-1.858895	-1.770902	-1.680596	-1.587994	-1.497129	-1.411153	-1.322850	
-3.884726	-3.884726	-3.884726	-3.884726	-3.884726	-3.884726	-3.884726	-3.884726	-3.884726	-3.884726	-3.884726	-3.884726	-3.884726	-3.884726	-3.884726	-3.884726	-3.884726	-3.884726	-3.884726	-3.884726	-3.884726	-3.884726	-3.884726	-3.884726	-3.884726	-3.884726	-3.884726	-3.883726	-3.881403	-3.872662	-3.848879	-3.726884	-3.644808	-3.567651	-3.492364	-3.417240	-3.341664	-3.264490	-3.185723	-3.105015	-3.022050	-2.936613	-2.848373	-2.757364	-2.663371	-2.566384	-2.480414	-2.410610	-2.338611	-2.264352	-2.187840	-2.109036	-2.027947	-1.944572	-1.858895	-1.770902	-1.680596	-1.587994	-1.497129	-1.411153	-1.322850	
-3.886407	-3.886407	-3.886407	-3.886407	-3.886407	-3.886407	-3.886407	-3.886407	-3.886407	-3.886407	-3.886407	-3.886407	-3.886407	-3.886407	-3.886407	-3.886407	-3.886407	-3.886407	-3.886407	-3.886407	-3.886407	-3.886407	-3.886407	-3.886407	-3.886407	-3.886407	-3.886407	-3.885461	-3.883188	-3.874524	-3.850809	-3.730991	-3.648824	-3.572256	-3.497272	-3.422752	-3.347181	-3.270364	-3.191914	-3.111534	-3.028865	-2.943740	-2.855799	-2.765129	-2.671533	-2.574857	-2.480414	-2.410610	-2.338611	-2.264352	-2.187840	-2.109036	-2.027947	-1.944572	-1.858895	-1.770902	-1.680596	-1.587994	-1.497129	-1.411153	-1.322850	
-3.888093	-3.888093	-3.888093	-3.888093	-3.888093	-3.888093	-3.888093	-3.888093	-3.888093	-3.888093	-3.888093	-3.888093	-3.888093	-3.888093	-3.888093	-3.888093	-3.888093	-3.888093	-3.888093	-3.888093	-3.888093	-3.888093	-3.888093	-3.888093	-3.888093	-3.888093	-3.888093	-3.887203	-3.884978	-3.876392	-3.852745	-3.734562	-3.652875	-3.576563	-3.502105	-3.427972	-3.352668	-3.276162	-3.198035	-3.117923	-3.035585	-2.950663	-2.863130	-2.772753	-2.679567	-2.583334	-2.483662	-2.410610	-2.338611	-2.264352	-2.187840	-2.109036	-2.027947	-1.944572	-1.858895	-1.770902	-1.680596	-1.587994	-1.497129	-1.411153	-1.322850	
-3.889785	-3.889785	-3.889785	-3.889785	-3.889785	-3.889785	-3.889785	-3.889785	-3.889785	-3.889785	-3.889785	-3.889785	-3.889785	-3.889785	-3.889785	-3.889785	-3.889785	-3.889785	-3.889785	-3.889785	-3.889785	-3.889785	-3.889785	-3.889785	-3.889785	-3.889785	-3.889785	-3.888949	-3.886773	-3.878267	-3.854688	-3.738284	-3.656808	-3.581085	-3.506929	-3.433036	-3.358078	-3.281900	-3.204071	-3.124279	-3.042227	-2.957609	-2.870356	-2.780344	-2.687486	-2.591648	-2.491874	-2.410610	-2.338611	-2.264352	-2.187840	-2.109036	-2.027947	-1.944572	-1.858895	-1.770902	-1.680596	-1.587994	-1.497129	-1.411153	-1.322850	
-3.891481	-3.891481	-3.891481	-3.891481	-3.891481	-3.891481	-3.891481	-3.891481	-3.891481	-3.891481	-3.891481	-3.891481	-3.891481	-3.891481	-3.891481	-3.891481	-3.891481	-3.891481	-3.891481	-3.891481	-3.891481	-3.891481	-3.891481	-3.891481	-3.891481	-3.891481	-3.891481	-3.890701	-3.888574	-3.885066	-3.858215	-3.742126	-3.660802	-3.585488	-3.511655	-3.438037	-3.363427	-3.287560	-3.210040	-3.130529	-3.048774	-2.964387	-2.877495	-2.787823	-2.695307	-2.599839	-2.499898	-2.410610	-2.338611	-2.264352	-2.187840	-2.109036	-2.027947	-1.944572	-1.858895	-1.770902	-1.680596	-1.587994	-1.497129	-1.411153	-1.322850	
-3.893183	-3.893183	-3.893183	-3.893183	-3.893183	-3.893183	-3.893183	-3.893183	-3.893183	-3.893183	-3.893183	-3.893183	-3.893183	-3.893183	-3.893183	-3.893183	-3.893183	-3.893183	-3.893183	-3.893183	-3.893183	-3.893183	-3.893183	-3.893183	-3.893183	-3.893183	-3.893183	-3.892458	-3.890380	-3.886916	-3.861883	-3.745730	-3.664683	-3.589803	-3.516413	-3.443008	-3.368710	-3.293167	-3.215955	-3.136706	-3.055223	-2.971138	-2.884538	-2.795195	-2.703029	-2.607946	-2.508407	-2.410610	-2.338611	-2.264352	-2.187840	-2.109036	-2.027947	-1.944572	-1.858895	-1.770902	-1.680596	-1.587994	-1.497129	-1.411153	-1.322850	
-3.894889	-3.894889	-3.894889	-3.894889	-3.894889	-3.894889	-3.894889	-3.894889	-3.894889	-3.894889	-3.894889	-3.894889	-3.894889	-3.894889	-3.894889	-3.894889	-3.894889	-3.894889	-3.894889	-3.894889	-3.894889	-3.894889	-3.894889	-3.894889	-3.894889	-3.894889	-3.894889	-3.894889	-3.892192	-3.888771	-3.865515	-3.749408	-3.668499	-3.594072	-3.520986	-3.447915	-3.373943	-3.298683	-3.221765	-3.142801	-3.061591	-2.977857	-2.891490	-2.802478	-2.710653	-2.615950	-2.517397	-2.414027	-2.338611	-2.264352	-2.187840	-2.109036	-2.027947	-1.944572	-1.858895	-1.770902	-1.680596	-1.587994	-1.497129	-1.411153	-1.322850	
-3.896601	-3.896601	-3.896601	-3.896601	-3.896601	-3.896601	-3.896601	-3.896601	-3.896601	-3.896601	-3.896601	-3.896601	-3.896601	-3.896601	-3.896601	-3.896601	-3.896601	-3.896601	-3.896601	-3.896601	-3.896601	-3.896601	-3.896601	-3.896601	-3.896601	-3.896601	-3.896601	-3.896601	-3.894010	-3.890632	-3.869648	-3.753066	-3.672530	-3.598339	-3.525521	-3.452770	-3.379122	-3.304155	-3.227509	-3.148828	-3.067835	-2.984397	-2.898373	-2.809674	-2.718001	-2.623639	-2.526009	-2.422765	-2.338611	-2.264352	-2.187840	-2.109036	-2.027947	-1.944572	-1.858895	-1.770902	-1.680596	-1.587994	-1.497129	-1.411153	-1.322850	
-3.898317	-3.898317	-3.898317	-3.898317	-3.898317	-3.898317	-3.898317	-3.898317	-3.898317	-3.898317	-3.898317	-3.898317	-3.898317	-3.898317	-3.898317	-3.898317	-3.898317	-3.898317	-3.898317	-3.898317	-3.898317	-3.898317	-3.898317	-3.898317	-3.898317	-3.898317	-3.898317	-3.898317	-3.895832	-3.892498	-3.873752	-3.756610	-3.676596	-3.602421	-3.530022	-3.457581	-3.384234	-3.309575	-3.233178	-3.154787	-3.073980	-2.990750	-2.905232	-2.817031	-2.726008	-2.631994	-2.534230	-2.431382	-2.338611	-2.264352	-2.187840	-2.109036	-2.027947	-1.944572	-1.858895	-1.770902	-1.680596	-1.587994	-1.497129	-1.411153	-1.322850	
-3.900038	-3.900038	-3.900038	-3.900038	-3.900038	-3.900038	-3.900038	-3.900038	-3.900038	-3.900038	-3.900038	-3.900038	-3.900038	-3.900038	-3.900038	-3.900038	-3.900038	-3.900038	-3.900038	-3.900038	-3.900038	-3.900038	-3.900038	-3.900038	-3.900038	-3.900038	-3.900038	-3.900038	-3.897660	-3.894370	-3.875716	-3.760053	-3.680716	-3.606508	-3.534513	-3.462342	-3.389286	-3.314931	-3.238804	-3.160678	-3.080187	-2.997606	-2.912433	-2.824545	-2.733835	-2.640234	-2.542339	-2.439881	-2.338611	-2.264352	-2.187840	-2.109036	-2.027947	-1.944572	-1.858895	-1.770902	-1.680596	-1.587994	-1.497129	-1.411153	-1.322850	
-3.901765	-3.901765	-3.901765	-3.901765	-3.901765	-3.901765	-3.901765	-3.901765	-3.901765	-3.901765	-3.901765	-3.901765	-3.901765	-3.901765	-3.901765	-3.901765	-3.901765	-3.901765	-3.901765	-3.901765	-3.901765	-3.901765	-3.901765	-3.901765	-3.901765	-3.901765	-3.901765	-3.901765	-3.901321	-3.896248	-3.877686	-3.763424	-3.684694	-3.610723	-3.538927	-3.467053	-3.394308	-3.320218	-3.244357	-3.166503	-3.086803	-3.004380	-2.919564	-2.831976	-2.741620	-2.648379	-2.550338	-2.448282	-2.342709	-2.264352	-2.187840	-2.109036	-2.027947	-1.944572	-1.858895	-1.770902	-1.680596	-1.587994	-1.497129	-1.411153	-1.322850	
