t	1.00000	tdiag	0.75000	tc	0.05000	T	0.00000	U	1.00000	Vmin	0.00000	Vmax	0.05000	NV	61	mumin	0.00000	mumax	3.00000	Nmu	61
0.354430	0.354430	0.354430	0.354430	0.379747	0.379747	0.379747	0.379747	0.379747	0.405063	0.405063	0.405063	0.405063	0.405063	0.531646	0.556962	0.582278	0.607595	0.632911	0.658228	0.658228	0.683544	0.708861	0.734177	0.734177	0.759494	0.784810	0.810127	0.835443	0.835443	0.860759	0.886076	0.911392	0.936709	0.962025	0.962025	0.987342	1.012658	1.037975	1.063291	1.088608	1.113924	1.139241	1.139241	1.164557	1.189873	1.215190	1.240506	1.265823	1.291139	1.316456	1.341772	1.367089	1.392405	1.417722	1.443038	1.468354	1.468354	0.936709	0.962025	0.987342	
0.354430	0.354430	0.354430	0.354430	0.379747	0.379747	0.379747	0.379747	0.379747	0.405063	0.405063	0.405063	0.405063	0.405063	0.531646	0.556962	0.582278	0.607595	0.632911	0.658228	0.658228	0.683544	0.708861	0.734177	0.734177	0.759494	0.784810	0.810127	0.835443	0.835443	0.860759	0.886076	0.911392	0.936709	0.962025	0.962025	0.987342	1.012658	1.037975	1.063291	1.088608	1.113924	1.139241	1.139241	1.164557	1.189873	1.215190	1.240506	1.265823	1.291139	1.316456	1.341772	1.367089	1.392405	1.417722	1.443038	1.468354	1.468354	0.936709	0.962025	0.987342	
0.354430	0.354430	0.354430	0.354430	0.379747	0.379747	0.379747	0.379747	0.379747	0.405063	0.405063	0.405063	0.405063	0.405063	0.531646	0.556962	0.582278	0.607595	0.632911	0.658228	0.658228	0.683544	0.708861	0.734177	0.734177	0.759494	0.784810	0.810127	0.835443	0.835443	0.860759	0.886076	0.911392	0.936709	0.962025	0.962025	0.987342	1.012658	1.037975	1.063291	1.088608	1.113924	1.139241	1.139241	1.164557	1.189873	1.215190	1.240506	1.265823	1.291139	1.316456	1.341772	1.367089	1.392405	1.417722	1.443038	1.468354	1.468354	0.936709	0.962025	0.987342	
0.354430	0.354430	0.354430	0.354430	0.379747	0.379747	0.379747	0.379747	0.379747	0.405063	0.405063	0.405063	0.405063	0.405063	0.531646	0.556962	0.582278	0.607595	0.632911	0.658228	0.658228	0.683544	0.708861	0.734177	0.734177	0.759494	0.784810	0.810127	0.835443	0.835443	0.860759	0.886076	0.911392	0.936709	0.962025	0.962025	0.987342	1.012658	1.037975	1.063291	1.088608	1.113924	1.139241	1.139241	1.164557	1.189873	1.215190	1.240506	1.265823	1.291139	1.316456	1.341772	1.367089	1.392405	1.417722	1.443038	1.468354	1.468354	0.936709	0.962025	0.987342	
0.354430	0.354430	0.354430	0.354430	0.379747	0.379747	0.379747	0.379747	0.379747	0.405063	0.405063	0.405063	0.405063	0.405063	0.531646	0.556962	0.582278	0.607595	0.632911	0.658228	0.658228	0.683544	0.708861	0.734177	0.734177	0.759494	0.784810	0.810127	0.835443	0.835443	0.860759	0.886076	0.911392	0.936709	0.962025	0.962025	0.987342	1.012658	1.037975	1.063291	1.088608	1.113924	1.139241	1.139241	1.164557	1.189873	1.215190	1.240506	1.265823	1.291139	1.316456	1.341772	1.367089	1.392405	1.417722	1.443038	1.468354	1.468354	0.936709	0.962025	0.987342	
0.354430	0.354430	0.354430	0.354430	0.379747	0.379747	0.379747	0.379747	0.379747	0.405063	0.405063	0.405063	0.405063	0.405063	0.531646	0.556962	0.582278	0.607595	0.632911	0.658228	0.658228	0.683544	0.708861	0.734177	0.734177	0.759494	0.784810	0.810127	0.835443	0.835443	0.860759	0.886076	0.911392	0.936709	0.962025	0.962025	0.987342	1.012658	1.037975	1.063291	1.088608	1.113924	1.139241	1.139241	1.164557	1.189873	1.215190	1.240506	1.265823	1.291139	1.316456	1.341772	1.367089	1.392405	1.417722	1.443038	1.468354	1.468354	0.936709	0.962025	0.987342	
0.354430	0.354430	0.354430	0.354430	0.379747	0.379747	0.379747	0.379747	0.379747	0.405063	0.405063	0.405063	0.405063	0.405063	0.531646	0.556962	0.582278	0.607595	0.632911	0.658228	0.658228	0.683544	0.708861	0.734177	0.734177	0.759494	0.784810	0.810127	0.835443	0.835443	0.860759	0.886076	0.911392	0.936709	0.962025	0.962025	0.987342	1.012658	1.037975	1.063291	1.088608	1.113924	1.139241	1.139241	1.164557	1.189873	1.215190	1.240506	1.265823	1.291139	1.316456	1.341772	1.367089	1.392405	1.417722	1.443038	1.468354	1.468354	0.936709	0.962025	0.987342	
0.354430	0.354430	0.354430	0.354430	0.379747	0.379747	0.379747	0.379747	0.379747	0.405063	0.405063	0.405063	0.405063	0.405063	0.531646	0.556962	0.582278	0.607595	0.632911	0.658228	0.658228	0.683544	0.708861	0.734177	0.734177	0.759494	0.784810	0.810127	0.835443	0.835443	0.860759	0.886076	0.911392	0.936709	0.962025	0.962025	0.987342	1.012658	1.037975	1.063291	1.088608	1.113924	1.139241	1.139241	1.164557	1.189873	1.215190	1.240506	1.265823	1.291139	1.316456	1.341772	1.367089	1.392405	1.417722	1.443038	1.468354	1.468354	0.936709	0.962025	0.987342	
0.354430	0.354430	0.354430	0.354430	0.379747	0.379747	0.379747	0.379747	0.379747	0.405063	0.405063	0.405063	0.405063	0.405063	0.531646	0.556962	0.582278	0.607595	0.632911	0.658228	0.658228	0.683544	0.708861	0.734177	0.734177	0.759494	0.784810	0.810127	0.835443	0.835443	0.860759	0.886076	0.911392	0.936709	0.962025	0.962025	0.987342	1.012658	1.037975	1.063291	1.088608	1.113924	1.139241	1.139241	1.164557	1.189873	1.215190	1.240506	1.265823	1.291139	1.316456	1.341772	1.367089	1.392405	1.417722	1.443038	1.468354	1.468354	0.936709	0.962025	0.987342	
0.354430	0.354430	0.354430	0.354430	0.379747	0.379747	0.379747	0.379747	0.379747	0.405063	0.405063	0.405063	0.405063	0.405063	0.531646	0.556962	0.582278	0.607595	0.632911	0.658228	0.658228	0.683544	0.708861	0.734177	0.734177	0.759494	0.784810	0.810127	0.835443	0.835443	0.860759	0.886076	0.911392	0.936709	0.962025	0.962025	0.987342	1.012658	1.037975	1.063291	1.088608	1.113924	1.139241	1.139241	1.164557	1.189873	1.215190	1.240506	1.265823	1.291139	1.316456	1.341772	1.367089	1.392405	1.417722	1.443038	1.468354	1.468354	0.936709	0.962025	0.987342	
0.354430	0.354430	0.354430	0.354430	0.379747	0.379747	0.379747	0.379747	0.379747	0.405063	0.405063	0.405063	0.405063	0.405063	0.531646	0.556962	0.582278	0.607595	0.632911	0.658228	0.658228	0.683544	0.708861	0.734177	0.734177	0.759494	0.784810	0.810127	0.835443	0.835443	0.860759	0.886076	0.911392	0.936709	0.962025	0.962025	0.987342	1.012658	1.037975	1.063291	1.088608	1.113924	1.139241	1.139241	1.164557	1.189873	1.215190	1.240506	1.265823	1.291139	1.316456	1.341772	1.367089	1.392405	1.417722	1.443038	1.468354	1.468354	0.936709	0.962025	0.987342	
0.354430	0.354430	0.354430	0.354430	0.379747	0.379747	0.379747	0.379747	0.379747	0.405063	0.405063	0.405063	0.405063	0.405063	0.531646	0.556962	0.582278	0.607595	0.632911	0.658228	0.658228	0.683544	0.708861	0.734177	0.734177	0.759494	0.784810	0.810127	0.835443	0.835443	0.860759	0.886076	0.911392	0.936709	0.962025	0.962025	0.987342	1.012658	1.037975	1.063291	1.088608	1.113924	1.139241	1.139241	1.164557	1.189873	1.215190	1.240506	1.265823	1.291139	1.316456	1.341772	1.367089	1.392405	1.417722	1.443038	1.468354	1.468354	0.936709	0.962025	0.987342	
0.354430	0.354430	0.354430	0.354430	0.379747	0.379747	0.379747	0.379747	0.379747	0.405063	0.405063	0.405063	0.405063	0.405063	0.531646	0.556962	0.582278	0.607595	0.632911	0.658228	0.658228	0.683544	0.708861	0.734177	0.734177	0.759494	0.784810	0.810127	0.835443	0.835443	0.860759	0.886076	0.911392	0.936709	0.962025	0.962025	0.987342	1.012658	1.037975	1.063291	1.088608	1.113924	1.139241	1.139241	1.164557	1.189873	1.215190	1.240506	1.265823	1.291139	1.316456	1.341772	1.367089	1.392405	1.417722	1.443038	1.468354	1.468354	0.936709	0.962025	0.987342	
0.354430	0.354430	0.354430	0.354430	0.379747	0.379747	0.379747	0.379747	0.379747	0.405063	0.405063	0.405063	0.405063	0.405063	0.531646	0.556962	0.582278	0.607595	0.632911	0.658228	0.658228	0.683544	0.708861	0.734177	0.734177	0.759494	0.784810	0.810127	0.835443	0.835443	0.860759	0.886076	0.911392	0.936709	0.962025	0.962025	0.987342	1.012658	1.037975	1.063291	1.088608	1.113924	1.139241	1.139241	1.164557	1.189873	1.215190	1.240506	1.265823	1.291139	1.316456	1.341772	1.367089	1.392405	1.417722	1.443038	1.468354	1.468354	0.936709	0.962025	0.987342	
0.354430	0.354430	0.354430	0.354430	0.379747	0.379747	0.379747	0.379747	0.379747	0.405063	0.405063	0.405063	0.405063	0.405063	0.531646	0.556962	0.582278	0.607595	0.632911	0.658228	0.658228	0.683544	0.708861	0.734177	0.734177	0.759494	0.784810	0.810127	0.835443	0.835443	0.860759	0.886076	0.911392	0.936709	0.962025	0.962025	0.987342	1.012658	1.037975	1.063291	1.088608	1.113924	1.139241	1.139241	1.164557	1.189873	1.215190	1.240506	1.265823	1.291139	1.316456	1.341772	1.367089	1.392405	1.417722	1.443038	1.468354	1.468354	0.936709	0.962025	0.987342	
0.354430	0.354430	0.354430	0.354430	0.379747	0.379747	0.379747	0.379747	0.379747	0.405063	0.405063	0.405063	0.405063	0.405063	0.531646	0.556962	0.582278	0.607595	0.632911	0.658228	0.658228	0.683544	0.708861	0.734177	0.734177	0.759494	0.784810	0.810127	0.835443	0.835443	0.860759	0.886076	0.911392	0.936709	0.962025	0.962025	0.987342	1.012658	1.037975	1.063291	1.088608	1.113924	1.139241	1.139241	1.164557	1.189873	1.215190	1.240506	1.265823	1.291139	1.316456	1.341772	1.367089	1.392405	1.417722	1.443038	1.468354	1.468354	0.936709	0.962025	0.987342	
0.354430	0.354430	0.354430	0.354430	0.379747	0.379747	0.379747	0.379747	0.379747	0.405063	0.405063	0.405063	0.405063	0.405063	0.531646	0.556962	0.582278	0.607595	0.632911	0.658228	0.658228	0.683544	0.708861	0.734177	0.734177	0.759494	0.784810	0.810127	0.835443	0.835443	0.860759	0.886076	0.911392	0.936709	0.962025	0.962025	0.987342	1.012658	1.037975	1.063291	1.088608	1.113924	1.139241	1.139241	1.164557	1.189873	1.215190	1.240506	1.265823	1.291139	1.316456	1.341772	1.367089	1.392405	1.417722	1.443038	1.468354	1.468354	0.936709	0.962025	0.987342	
0.354430	0.354430	0.354430	0.354430	0.379747	0.379747	0.379747	0.379747	0.379747	0.405063	0.405063	0.405063	0.405063	0.405063	0.531646	0.556962	0.582278	0.607595	0.632911	0.658228	0.658228	0.683544	0.708861	0.734177	0.734177	0.759494	0.784810	0.810127	0.835443	0.835443	0.860759	0.886076	0.911392	0.936709	0.962025	0.962025	0.987342	1.012658	1.037975	1.063291	1.088608	1.113924	1.139241	1.139241	1.164557	1.189873	1.215190	1.240506	1.265823	1.291139	1.316456	1.341772	1.367089	1.392405	1.417722	1.443038	1.468354	1.468354	0.936709	0.962025	0.987342	
0.354430	0.354430	0.354430	0.354430	0.379747	0.379747	0.379747	0.379747	0.379747	0.405063	0.405063	0.405063	0.405063	0.405063	0.531646	0.556962	0.582278	0.607595	0.632911	0.658228	0.658228	0.683544	0.708861	0.734177	0.734177	0.759494	0.784810	0.810127	0.835443	0.835443	0.860759	0.886076	0.911392	0.936709	0.962025	0.962025	0.987342	1.012658	1.037975	1.063291	1.088608	1.113924	1.139241	1.139241	1.164557	1.189873	1.215190	1.240506	1.265823	1.291139	1.316456	1.341772	1.367089	1.392405	1.417722	1.443038	1.468354	1.468354	0.936709	0.962025	0.987342	
0.354430	0.354430	0.354430	0.354430	0.379747	0.379747	0.379747	0.379747	0.379747	0.405063	0.405063	0.405063	0.405063	0.405063	0.531646	0.556962	0.582278	0.607595	0.632911	0.658228	0.658228	0.683544	0.708861	0.734177	0.734177	0.759494	0.784810	0.810127	0.835443	0.835443	0.860759	0.886076	0.911392	0.936709	0.962025	0.962025	0.987342	1.012658	1.037975	1.063291	1.088608	1.113924	1.139241	1.139241	1.164557	1.189873	1.215190	1.240506	1.265823	1.291139	1.316456	1.341772	1.367089	1.392405	1.417722	1.443038	1.468354	1.468354	0.936709	0.962025	0.987342	
0.354430	0.354430	0.354430	0.354430	0.379747	0.379747	0.379747	0.379747	0.379747	0.405063	0.405063	0.405063	0.405063	0.405063	0.531646	0.556962	0.582278	0.607595	0.632911	0.658228	0.658228	0.683544	0.708861	0.734177	0.734177	0.759494	0.784810	0.810127	0.835443	0.835443	0.860759	0.886076	0.911392	0.936709	0.962025	0.962025	0.987342	1.012658	1.037975	1.063291	1.088608	1.113924	1.139241	1.139241	1.164557	1.189873	1.215190	1.240506	1.265823	1.291139	1.316456	1.341772	1.367089	1.392405	1.417722	1.443038	1.468354	1.468354	0.936709	0.962025	0.987342	
0.354430	0.354430	0.354430	0.354430	0.379747	0.379747	0.379747	0.379747	0.379747	0.405063	0.405063	0.405063	0.405063	0.405063	0.531646	0.556962	0.582278	0.607595	0.632911	0.658228	0.658228	0.683544	0.708861	0.734177	0.734177	0.759494	0.784810	0.810127	0.835443	0.835443	0.860759	0.886076	0.911392	0.936709	0.962025	0.962025	0.987342	1.012658	1.037975	1.063291	1.088608	1.113924	1.139241	1.139241	1.164557	1.189873	1.215190	1.240506	1.265823	1.291139	1.316456	1.341772	1.367089	1.392405	1.417722	1.443038	1.468354	1.468354	0.936709	0.962025	0.987342	
0.354430	0.354430	0.354430	0.354430	0.379747	0.379747	0.379747	0.379747	0.379747	0.405063	0.405063	0.405063	0.405063	0.405063	0.531646	0.556962	0.582278	0.607595	0.632911	0.658228	0.658228	0.683544	0.708861	0.734177	0.734177	0.759494	0.784810	0.810127	0.835443	0.835443	0.860759	0.886076	0.911392	0.936709	0.962025	0.962025	0.987342	1.012658	1.037975	1.063291	1.088608	1.113924	1.139241	1.139241	1.164557	1.189873	1.215190	1.240506	1.265823	1.291139	1.316456	1.341772	1.367089	1.392405	1.417722	1.443038	1.468354	1.468354	0.936709	0.962025	0.987342	
0.354430	0.354430	0.354430	0.354430	0.379747	0.379747	0.379747	0.379747	0.379747	0.405063	0.405063	0.405063	0.405063	0.405063	0.531646	0.556962	0.582278	0.607595	0.632911	0.658228	0.658228	0.683544	0.708861	0.734177	0.734177	0.759494	0.784810	0.810127	0.835443	0.835443	0.860759	0.886076	0.911392	0.936709	0.962025	0.962025	0.987342	1.012658	1.037975	1.063291	1.088608	1.113924	1.139241	1.139241	1.164557	1.189873	1.215190	1.240506	1.265823	1.291139	1.316456	1.341772	1.367089	1.392405	1.417722	1.443038	1.468354	1.468354	0.936709	0.962025	0.987342	
0.354430	0.354430	0.354430	0.354430	0.379747	0.379747	0.379747	0.379747	0.379747	0.405063	0.405063	0.405063	0.405063	0.405063	0.531646	0.556962	0.582278	0.607595	0.632911	0.658228	0.658228	0.683544	0.708861	0.734177	0.734177	0.759494	0.784810	0.810127	0.835443	0.835443	0.860759	0.886076	0.911392	0.936709	0.962025	0.962025	0.987342	1.012658	1.037975	1.063291	1.088608	1.113924	1.139241	1.139241	1.164557	1.189873	1.215190	1.240506	1.265823	1.291139	1.316456	1.341772	1.367089	1.392405	1.417722	1.443038	1.468354	1.468354	0.936709	0.962025	0.987342	
0.354430	0.354430	0.354430	0.354430	0.379747	0.379747	0.379747	0.379747	0.379747	0.405063	0.405063	0.405063	0.405063	0.405063	0.531646	0.556962	0.582278	0.607595	0.632911	0.658228	0.658228	0.683544	0.708861	0.734177	0.734177	0.759494	0.784810	0.810127	0.835443	0.835443	0.860759	0.886076	0.911392	0.936709	0.962025	0.962025	0.987342	1.012658	1.037975	1.063291	1.088608	1.113924	1.139241	1.139241	1.164557	1.189873	1.215190	1.240506	1.265823	1.291139	1.316456	1.341772	1.367089	1.392405	1.417722	1.443038	1.468354	1.468354	0.936709	0.962025	0.987342	
0.354430	0.354430	0.354430	0.354430	0.379747	0.379747	0.379747	0.379747	0.379747	0.405063	0.405063	0.405063	0.405063	0.405063	0.531646	0.556962	0.582278	0.607595	0.632911	0.658228	0.658228	0.683544	0.708861	0.734177	0.734177	0.759494	0.784810	0.810127	0.835443	0.835443	0.860759	0.886076	0.911392	0.936709	0.962025	0.962025	0.987342	1.012658	1.037975	1.063291	1.088608	1.113924	1.139241	1.139241	1.164557	1.189873	1.215190	1.240506	1.265823	1.291139	1.316456	1.341772	1.367089	1.392405	1.417722	1.443038	1.468354	1.468354	0.936709	0.962025	0.987342	
0.354430	0.354430	0.354430	0.354430	0.379747	0.379747	0.379747	0.379747	0.379747	0.405063	0.405063	0.405063	0.405063	0.405063	0.531646	0.556962	0.582278	0.607595	0.632911	0.658228	0.658228	0.683544	0.708861	0.734177	0.734177	0.759494	0.784810	0.810127	0.835443	0.835443	0.860759	0.886076	0.911392	0.936709	0.962025	0.962025	0.987342	1.012658	1.037975	1.063291	1.088608	1.113924	1.139241	1.139241	1.164557	1.189873	1.215190	1.240506	1.265823	1.291139	1.316456	1.341772	1.367089	1.392405	1.417722	1.443038	1.468354	1.468354	0.936709	0.962025	0.987342	
0.354430	0.354430	0.354430	0.354430	0.379747	0.379747	0.379747	0.379747	0.379747	0.405063	0.405063	0.405063	0.405063	0.405063	0.531646	0.556962	0.582278	0.607595	0.632911	0.658228	0.658228	0.683544	0.708861	0.734177	0.734177	0.759494	0.784810	0.810127	0.835443	0.835443	0.860759	0.886076	0.911392	0.936709	0.962025	0.962025	0.987342	1.012658	1.037975	1.063291	1.088608	1.113924	1.139241	1.139241	1.164557	1.189873	1.215190	1.240506	1.265823	1.291139	1.316456	1.341772	1.367089	1.392405	1.417722	1.443038	1.468354	1.468354	0.936709	0.962025	0.987342	
0.354430	0.354430	0.354430	0.354430	0.379747	0.379747	0.379747	0.379747	0.379747	0.405063	0.405063	0.405063	0.405063	0.405063	0.531646	0.556962	0.582278	0.607595	0.632911	0.658228	0.658228	0.683544	0.708861	0.734177	0.734177	0.759494	0.784810	0.810127	0.835443	0.835443	0.860759	0.886076	0.911392	0.936709	0.962025	0.962025	0.987342	1.012658	1.037975	1.063291	1.088608	1.113924	1.139241	1.139241	1.164557	1.189873	1.215190	1.240506	1.265823	1.291139	1.316456	1.341772	1.367089	1.392405	1.417722	1.443038	1.468354	1.468354	0.936709	0.962025	0.987342	
0.354430	0.354430	0.354430	0.354430	0.379747	0.379747	0.379747	0.379747	0.379747	0.405063	0.405063	0.405063	0.405063	0.405063	0.531646	0.556962	0.582278	0.607595	0.632911	0.658228	0.658228	0.683544	0.708861	0.734177	0.734177	0.759494	0.784810	0.810127	0.835443	0.835443	0.860759	0.886076	0.911392	0.936709	0.962025	0.962025	0.987342	1.012658	1.037975	1.063291	1.088608	1.113924	1.139241	1.139241	1.164557	1.189873	1.215190	1.240506	1.265823	1.291139	1.316456	1.341772	1.367089	1.392405	1.417722	1.443038	1.468354	1.468354	0.936709	0.962025	0.987342	
0.354430	0.354430	0.354430	0.354430	0.379747	0.379747	0.379747	0.379747	0.379747	0.405063	0.405063	0.405063	0.405063	0.405063	0.531646	0.556962	0.582278	0.607595	0.632911	0.658228	0.658228	0.683544	0.708861	0.734177	0.734177	0.759494	0.784810	0.810127	0.835443	0.835443	0.860759	0.886076	0.911392	0.936709	0.962025	0.962025	0.987342	1.012658	1.037975	1.063291	1.088608	1.113924	1.139241	1.139241	1.164557	1.189873	1.215190	1.240506	1.265823	1.291139	1.316456	1.341772	1.367089	1.392405	1.417722	1.443038	1.468354	1.468354	0.936709	0.962025	0.987342	
0.354430	0.354430	0.354430	0.354430	0.379747	0.379747	0.379747	0.379747	0.379747	0.405063	0.405063	0.405063	0.405063	0.405063	0.531646	0.556962	0.582278	0.607595	0.632911	0.658228	0.658228	0.683544	0.708861	0.734177	0.734177	0.759494	0.784810	0.810127	0.835443	0.835443	0.860759	0.886076	0.911392	0.936709	0.962025	0.962025	0.987342	1.012658	1.037975	1.063291	1.088608	1.113924	1.139241	1.139241	1.164557	1.189873	1.215190	1.240506	1.265823	1.291139	1.316456	1.341772	1.367089	1.392405	1.417722	1.443038	1.468354	1.468354	0.936709	0.962025	0.987342	
0.354430	0.354430	0.354430	0.354430	0.379747	0.379747	0.379747	0.379747	0.379747	0.405063	0.405063	0.405063	0.405063	0.405063	0.531646	0.556962	0.582278	0.607595	0.632911	0.658228	0.658228	0.683544	0.708861	0.734177	0.734177	0.759494	0.784810	0.810127	0.835443	0.835443	0.860759	0.886076	0.911392	0.936709	0.962025	0.962025	0.987342	1.012658	1.037975	1.063291	1.088608	1.113924	1.139241	1.139241	1.164557	1.189873	1.215190	1.240506	1.265823	1.291139	1.316456	1.341772	1.367089	1.392405	1.417722	1.443038	1.468354	1.468354	0.936709	0.962025	0.987342	
0.354430	0.354430	0.354430	0.354430	0.379747	0.379747	0.379747	0.379747	0.379747	0.405063	0.405063	0.405063	0.405063	0.405063	0.531646	0.556962	0.582278	0.607595	0.632911	0.658228	0.658228	0.683544	0.708861	0.734177	0.734177	0.759494	0.784810	0.810127	0.835443	0.835443	0.860759	0.886076	0.911392	0.936709	0.962025	0.962025	0.987342	1.012658	1.037975	1.063291	1.088608	1.113924	1.139241	1.139241	1.164557	1.189873	1.215190	1.240506	1.265823	1.291139	1.316456	1.341772	1.367089	1.392405	1.417722	1.443038	1.468354	1.468354	0.936709	0.962025	0.987342	
0.354430	0.354430	0.354430	0.354430	0.379747	0.379747	0.379747	0.379747	0.379747	0.405063	0.405063	0.405063	0.405063	0.405063	0.531646	0.556962	0.582278	0.607595	0.632911	0.658228	0.658228	0.683544	0.708861	0.734177	0.734177	0.759494	0.784810	0.810127	0.835443	0.835443	0.860759	0.886076	0.911392	0.936709	0.962025	0.962025	0.987342	1.012658	1.037975	1.063291	1.088608	1.113924	1.139241	1.139241	1.164557	1.189873	1.215190	1.240506	1.265823	1.291139	1.316456	1.341772	1.367089	1.392405	1.417722	1.443038	1.468354	1.468354	0.936709	0.962025	0.987342	
0.354430	0.354430	0.354430	0.354430	0.379747	0.379747	0.379747	0.379747	0.379747	0.405063	0.405063	0.405063	0.405063	0.405063	0.531646	0.556962	0.582278	0.607595	0.632911	0.658228	0.658228	0.683544	0.708861	0.734177	0.734177	0.759494	0.784810	0.810127	0.835443	0.835443	0.860759	0.886076	0.911392	0.936709	0.962025	0.962025	0.987342	1.012658	1.037975	1.063291	1.088608	1.113924	1.139241	1.139241	1.164557	1.189873	1.215190	1.240506	1.265823	1.291139	1.316456	1.341772	1.367089	1.392405	1.417722	1.443038	1.468354	1.468354	0.936709	0.962025	0.987342	
0.354430	0.354430	0.354430	0.354430	0.379747	0.379747	0.379747	0.379747	0.379747	0.405063	0.405063	0.405063	0.405063	0.405063	0.531646	0.556962	0.582278	0.607595	0.632911	0.658228	0.658228	0.683544	0.708861	0.734177	0.734177	0.759494	0.784810	0.810127	0.835443	0.835443	0.860759	0.886076	0.911392	0.936709	0.962025	0.962025	0.987342	1.012658	1.037975	1.063291	1.088608	1.113924	1.139241	1.139241	1.164557	1.189873	1.215190	1.240506	1.265823	1.291139	1.316456	1.341772	1.367089	1.392405	1.417722	1.443038	1.468354	1.468354	0.936709	0.962025	0.987342	
0.354430	0.354430	0.354430	0.354430	0.379747	0.379747	0.379747	0.379747	0.379747	0.405063	0.405063	0.405063	0.405063	0.405063	0.531646	0.556962	0.582278	0.607595	0.632911	0.658228	0.658228	0.683544	0.708861	0.734177	0.734177	0.759494	0.784810	0.810127	0.835443	0.835443	0.860759	0.886076	0.911392	0.936709	0.962025	0.962025	0.987342	1.012658	1.037975	1.063291	1.088608	1.113924	1.139241	1.139241	1.164557	1.189873	1.215190	1.240506	1.265823	1.291139	1.316456	1.341772	1.367089	1.392405	1.417722	1.443038	1.468354	1.468354	0.936709	0.962025	0.987342	
0.354430	0.354430	0.354430	0.354430	0.379747	0.379747	0.379747	0.379747	0.379747	0.405063	0.405063	0.405063	0.405063	0.405063	0.531646	0.556962	0.582278	0.607595	0.632911	0.658228	0.658228	0.683544	0.708861	0.734177	0.734177	0.759494	0.784810	0.810127	0.835443	0.835443	0.860759	0.886076	0.911392	0.936709	0.962025	0.962025	0.987342	1.012658	1.037975	1.063291	1.088608	1.113924	1.139241	1.139241	1.164557	1.189873	1.215190	1.240506	1.265823	1.291139	1.316456	1.341772	1.367089	1.392405	1.417722	1.443038	1.468354	1.468354	0.936709	0.962025	0.987342	
0.354430	0.354430	0.354430	0.354430	0.379747	0.379747	0.379747	0.379747	0.379747	0.405063	0.405063	0.405063	0.405063	0.405063	0.531646	0.556962	0.582278	0.607595	0.632911	0.658228	0.658228	0.683544	0.708861	0.734177	0.734177	0.759494	0.784810	0.810127	0.835443	0.835443	0.860759	0.886076	0.911392	0.936709	0.962025	0.962025	0.987342	1.012658	1.037975	1.063291	1.088608	1.113924	1.139241	1.139241	1.164557	1.189873	1.215190	1.240506	1.265823	1.291139	1.316456	1.341772	1.367089	1.392405	1.417722	1.443038	1.468354	1.468354	0.936709	0.962025	0.987342	
0.354430	0.354430	0.354430	0.354430	0.379747	0.379747	0.379747	0.379747	0.379747	0.405063	0.405063	0.405063	0.405063	0.405063	0.531646	0.556962	0.582278	0.607595	0.632911	0.658228	0.658228	0.683544	0.708861	0.734177	0.734177	0.759494	0.784810	0.810127	0.835443	0.835443	0.860759	0.886076	0.911392	0.936709	0.962025	0.962025	0.987342	1.012658	1.037975	1.063291	1.088608	1.113924	1.139241	1.139241	1.164557	1.189873	1.215190	1.240506	1.265823	1.291139	1.316456	1.341772	1.367089	1.392405	1.417722	1.443038	1.468354	1.468354	0.936709	0.962025	0.987342	
0.354430	0.354430	0.354430	0.354430	0.379747	0.379747	0.379747	0.379747	0.379747	0.405063	0.405063	0.405063	0.405063	0.405063	0.531646	0.556962	0.582278	0.607595	0.632911	0.658228	0.658228	0.683544	0.708861	0.734177	0.734177	0.759494	0.784810	0.810127	0.835443	0.835443	0.860759	0.886076	0.911392	0.936709	0.962025	0.962025	0.987342	1.012658	1.037975	1.063291	1.088608	1.113924	1.139241	1.139241	1.164557	1.189873	1.215190	1.240506	1.265823	1.291139	1.316456	1.341772	1.367089	1.392405	1.417722	1.443038	1.468354	1.468354	0.936709	0.962025	0.987342	
0.354430	0.354430	0.354430	0.354430	0.379747	0.379747	0.379747	0.379747	0.379747	0.405063	0.405063	0.405063	0.405063	0.405063	0.531646	0.556962	0.582278	0.607595	0.632911	0.658228	0.658228	0.683544	0.708861	0.734177	0.734177	0.759494	0.784810	0.810127	0.835443	0.835443	0.860759	0.886076	0.911392	0.936709	0.962025	0.962025	0.987342	1.012658	1.037975	1.063291	1.088608	1.113924	1.139241	1.139241	1.164557	1.189873	1.215190	1.240506	1.265823	1.291139	1.316456	1.341772	1.367089	1.392405	1.417722	1.443038	1.468354	1.468354	0.936709	0.962025	0.987342	
0.354430	0.354430	0.354430	0.354430	0.379747	0.379747	0.379747	0.379747	0.379747	0.405063	0.405063	0.405063	0.405063	0.405063	0.531646	0.556962	0.582278	0.607595	0.632911	0.658228	0.658228	0.683544	0.708861	0.734177	0.734177	0.759494	0.784810	0.810127	0.835443	0.835443	0.860759	0.886076	0.911392	0.936709	0.962025	0.962025	0.987342	1.012658	1.037975	1.063291	1.088608	1.113924	1.139241	1.139241	1.164557	1.189873	1.215190	1.240506	1.265823	1.291139	1.316456	1.341772	1.367089	1.392405	1.417722	1.443038	1.468354	1.468354	0.936709	0.962025	0.987342	
0.354430	0.354430	0.354430	0.354430	0.379747	0.379747	0.379747	0.379747	0.379747	0.405063	0.405063	0.405063	0.405063	0.405063	0.531646	0.556962	0.582278	0.607595	0.632911	0.658228	0.658228	0.683544	0.708861	0.734177	0.734177	0.759494	0.784810	0.810127	0.835443	0.835443	0.860759	0.886076	0.911392	0.936709	0.962025	0.962025	0.987342	1.012658	1.037975	1.063291	1.088608	1.113924	1.139241	1.139241	1.164557	1.189873	1.215190	1.240506	1.265823	1.291139	1.316456	1.341772	1.367089	1.392405	1.417722	1.443038	1.468354	1.468354	0.936709	0.962025	0.987342	
0.354430	0.354430	0.354430	0.354430	0.379747	0.379747	0.379747	0.379747	0.379747	0.405063	0.405063	0.405063	0.405063	0.405063	0.531646	0.556962	0.582278	0.607595	0.632911	0.658228	0.658228	0.683544	0.708861	0.734177	0.734177	0.759494	0.784810	0.810127	0.835443	0.835443	0.860759	0.886076	0.911392	0.936709	0.962025	0.962025	0.987342	1.012658	1.037975	1.063291	1.088608	1.113924	1.139241	1.139241	1.164557	1.189873	1.215190	1.240506	1.265823	1.291139	1.316456	1.341772	1.367089	1.392405	1.417722	1.443038	1.468354	1.468354	0.936709	0.962025	0.987342	
0.354430	0.354430	0.354430	0.354430	0.379747	0.379747	0.379747	0.379747	0.379747	0.405063	0.405063	0.405063	0.405063	0.405063	0.531646	0.556962	0.582278	0.607595	0.632911	0.658228	0.658228	0.683544	0.708861	0.734177	0.734177	0.759494	0.784810	0.810127	0.835443	0.835443	0.860759	0.886076	0.911392	0.936709	0.962025	0.962025	0.987342	1.012658	1.037975	1.063291	1.088608	1.113924	1.139241	1.139241	1.164557	1.189873	1.215190	1.240506	1.265823	1.291139	1.316456	1.341772	1.367089	1.392405	1.417722	1.443038	1.468354	1.468354	0.936709	0.962025	0.987342	
0.354430	0.354430	0.354430	0.354430	0.379747	0.379747	0.379747	0.379747	0.379747	0.405063	0.405063	0.405063	0.405063	0.405063	0.531646	0.556962	0.582278	0.607595	0.632911	0.658228	0.658228	0.683544	0.708861	0.734177	0.734177	0.759494	0.784810	0.810127	0.835443	0.835443	0.860759	0.886076	0.911392	0.936709	0.962025	0.962025	0.987342	1.012658	1.037975	1.063291	1.088608	1.113924	1.139241	1.139241	1.164557	1.189873	1.215190	1.240506	1.265823	1.291139	1.316456	1.341772	1.367089	1.392405	1.417722	1.443038	1.468354	1.468354	0.936709	0.962025	0.987342	
0.354430	0.354430	0.354430	0.354430	0.379747	0.379747	0.379747	0.379747	0.379747	0.405063	0.405063	0.405063	0.405063	0.405063	0.531646	0.556962	0.582278	0.607595	0.632911	0.658228	0.658228	0.683544	0.708861	0.734177	0.734177	0.759494	0.784810	0.810127	0.835443	0.835443	0.860759	0.886076	0.911392	0.936709	0.962025	0.962025	0.987342	1.012658	1.037975	1.063291	1.088608	1.113924	1.139241	1.139241	1.164557	1.189873	1.215190	1.240506	1.265823	1.291139	1.316456	1.341772	1.367089	1.392405	1.417722	1.443038	1.468354	1.468354	0.936709	0.962025	0.987342	
0.354430	0.354430	0.354430	0.354430	0.379747	0.379747	0.379747	0.379747	0.379747	0.405063	0.405063	0.405063	0.405063	0.405063	0.531646	0.556962	0.582278	0.607595	0.632911	0.658228	0.658228	0.683544	0.708861	0.734177	0.734177	0.759494	0.784810	0.810127	0.835443	0.835443	0.860759	0.886076	0.911392	0.936709	0.962025	0.962025	0.987342	1.012658	1.037975	1.063291	1.088608	1.113924	1.139241	1.139241	1.164557	1.189873	1.215190	1.240506	1.265823	1.291139	1.316456	1.341772	1.367089	1.392405	1.417722	1.443038	1.468354	1.468354	0.936709	0.962025	0.987342	
0.354430	0.354430	0.354430	0.354430	0.379747	0.379747	0.379747	0.379747	0.379747	0.405063	0.405063	0.405063	0.405063	0.405063	0.531646	0.556962	0.582278	0.607595	0.632911	0.658228	0.658228	0.683544	0.708861	0.734177	0.734177	0.759494	0.784810	0.810127	0.835443	0.835443	0.860759	0.886076	0.911392	0.936709	0.962025	0.962025	0.987342	1.012658	1.037975	1.063291	1.088608	1.113924	1.139241	1.139241	1.164557	1.189873	1.215190	1.240506	1.265823	1.291139	1.316456	1.341772	1.367089	1.392405	1.417722	1.443038	1.468354	1.468354	0.936709	0.962025	0.987342	
0.354430	0.354430	0.354430	0.354430	0.379747	0.379747	0.379747	0.379747	0.379747	0.405063	0.405063	0.405063	0.405063	0.405063	0.531646	0.556962	0.582278	0.607595	0.632911	0.658228	0.658228	0.683544	0.708861	0.734177	0.734177	0.759494	0.784810	0.810127	0.835443	0.835443	0.860759	0.886076	0.911392	0.936709	0.962025	0.962025	0.987342	1.012658	1.037975	1.063291	1.088608	1.113924	1.139241	1.139241	1.164557	1.189873	1.215190	1.240506	1.265823	1.291139	1.316456	1.341772	1.367089	1.392405	1.417722	1.443038	1.468354	1.468354	0.936709	0.962025	0.987342	
0.354430	0.354430	0.354430	0.354430	0.379747	0.379747	0.379747	0.379747	0.379747	0.405063	0.405063	0.405063	0.405063	0.405063	0.531646	0.556962	0.582278	0.607595	0.632911	0.658228	0.658228	0.683544	0.708861	0.734177	0.734177	0.759494	0.784810	0.810127	0.835443	0.835443	0.860759	0.886076	0.911392	0.936709	0.962025	0.962025	0.987342	1.012658	1.037975	1.063291	1.088608	1.113924	1.139241	1.139241	1.164557	1.189873	1.215190	1.240506	1.265823	1.291139	1.316456	1.341772	1.367089	1.392405	1.417722	1.443038	1.468354	1.468354	0.936709	0.962025	0.987342	
0.354430	0.354430	0.354430	0.354430	0.379747	0.379747	0.379747	0.379747	0.379747	0.405063	0.405063	0.405063	0.405063	0.405063	0.531646	0.556962	0.582278	0.607595	0.632911	0.658228	0.658228	0.683544	0.708861	0.734177	0.734177	0.759494	0.784810	0.810127	0.835443	0.835443	0.860759	0.886076	0.911392	0.936709	0.962025	0.962025	0.987342	1.012658	1.037975	1.063291	1.088608	1.113924	1.139241	1.139241	1.164557	1.189873	1.215190	1.240506	1.265823	1.291139	1.316456	1.341772	1.367089	1.392405	1.417722	1.443038	1.468354	1.468354	0.936709	0.962025	0.987342	
0.354430	0.354430	0.354430	0.354430	0.379747	0.379747	0.379747	0.379747	0.379747	0.405063	0.405063	0.405063	0.405063	0.405063	0.531646	0.556962	0.582278	0.607595	0.632911	0.658228	0.658228	0.683544	0.708861	0.734177	0.734177	0.759494	0.784810	0.810127	0.835443	0.835443	0.860759	0.886076	0.911392	0.936709	0.962025	0.962025	0.987342	1.012658	1.037975	1.063291	1.088608	1.113924	1.139241	1.139241	1.164557	1.189873	1.215190	1.240506	1.265823	1.291139	1.316456	1.341772	1.367089	1.392405	1.417722	1.443038	1.468354	1.468354	0.936709	0.962025	0.987342	
0.354430	0.354430	0.354430	0.354430	0.379747	0.379747	0.379747	0.379747	0.379747	0.405063	0.405063	0.405063	0.405063	0.405063	0.531646	0.556962	0.582278	0.607595	0.632911	0.658228	0.658228	0.683544	0.708861	0.734177	0.734177	0.759494	0.784810	0.810127	0.835443	0.835443	0.860759	0.886076	0.911392	0.936709	0.962025	0.962025	0.987342	1.012658	1.037975	1.063291	1.088608	1.113924	1.139241	1.139241	1.164557	1.189873	1.215190	1.240506	1.265823	1.291139	1.316456	1.341772	1.367089	1.392405	1.417722	1.443038	1.468354	1.468354	0.936709	0.962025	0.987342	
0.354430	0.354430	0.354430	0.354430	0.379747	0.379747	0.379747	0.379747	0.379747	0.405063	0.405063	0.405063	0.405063	0.405063	0.531646	0.556962	0.582278	0.607595	0.632911	0.658228	0.658228	0.683544	0.708861	0.734177	0.734177	0.759494	0.784810	0.810127	0.835443	0.835443	0.860759	0.886076	0.911392	0.936709	0.962025	0.962025	0.987342	1.012658	1.037975	1.063291	1.088608	1.113924	1.139241	1.139241	1.164557	1.189873	1.215190	1.240506	1.265823	1.291139	1.316456	1.341772	1.367089	1.392405	1.417722	1.443038	1.468354	1.468354	0.936709	0.962025	0.987342	
0.354430	0.354430	0.354430	0.354430	0.379747	0.379747	0.379747	0.379747	0.379747	0.405063	0.405063	0.405063	0.405063	0.405063	0.531646	0.556962	0.582278	0.607595	0.632911	0.658228	0.658228	0.683544	0.708861	0.734177	0.734177	0.759494	0.784810	0.810127	0.835443	0.835443	0.860759	0.886076	0.911392	0.936709	0.962025	0.962025	0.987342	1.012658	1.037975	1.063291	1.088608	1.113924	1.139241	1.139241	1.164557	1.189873	1.215190	1.240506	1.265823	1.291139	1.316456	1.341772	1.367089	1.392405	1.417722	1.443038	1.468354	1.468354	0.936709	0.962025	0.987342	
0.354430	0.354430	0.354430	0.354430	0.379747	0.379747	0.379747	0.379747	0.379747	0.405063	0.405063	0.405063	0.405063	0.405063	0.531646	0.556962	0.582278	0.607595	0.632911	0.658228	0.658228	0.683544	0.708861	0.734177	0.734177	0.759494	0.784810	0.810127	0.835443	0.835443	0.860759	0.886076	0.911392	0.936709	0.962025	0.962025	0.987342	1.012658	1.037975	1.063291	1.088608	1.113924	1.139241	1.139241	1.164557	1.189873	1.215190	1.240506	1.265823	1.291139	1.316456	1.341772	1.367089	1.392405	1.417722	1.443038	1.468354	1.468354	0.936709	0.962025	0.987342	
0.354430	0.354430	0.354430	0.354430	0.379747	0.379747	0.379747	0.379747	0.379747	0.405063	0.405063	0.405063	0.405063	0.405063	0.531646	0.556962	0.582278	0.607595	0.632911	0.658228	0.658228	0.683544	0.708861	0.734177	0.734177	0.759494	0.784810	0.810127	0.835443	0.835443	0.860759	0.886076	0.911392	0.936709	0.962025	0.962025	0.987342	1.012658	1.037975	1.063291	1.088608	1.113924	1.139241	1.139241	1.164557	1.189873	1.215190	1.240506	1.265823	1.291139	1.316456	1.341772	1.367089	1.392405	1.417722	1.443038	1.468354	1.468354	0.936709	0.962025	0.987342	
