t	1.00000	tdiag	0.75000	tc	0.02000	T	0.00000	U	1.00000	Vmin	0.00000	Vmax	0.09500	NV	61	mumin	0.00000	mumax	3.00000	Nmu	61
0.354430	0.354430	0.354430	0.354430	0.379747	0.379747	0.379747	0.379747	0.379747	0.405063	0.405063	0.405063	0.405063	0.405063	0.531646	0.556962	0.582278	0.607595	0.632911	0.658228	0.658228	0.683544	0.708861	0.734177	0.734177	0.759494	0.784810	0.810127	0.835443	0.835443	0.860759	0.886076	0.911392	0.936709	0.962025	0.962025	0.987342	1.012658	1.037975	1.063291	1.088608	1.113924	1.139241	1.139241	1.164557	1.189873	1.215190	1.240506	1.265823	1.291139	1.316456	1.341772	1.367089	1.392405	1.417722	1.443038	1.468354	1.468354	0.936709	0.962025	0.987342	
0.354430	0.354430	0.354430	0.354430	0.379747	0.379747	0.379747	0.379747	0.379747	0.405063	0.405063	0.405063	0.405063	0.405063	0.531646	0.556962	0.582278	0.607595	0.632911	0.658228	0.658228	0.683544	0.708861	0.734177	0.734177	0.759494	0.784810	0.810127	0.835443	0.835443	0.860759	0.886076	0.911392	0.936709	0.962025	0.962025	0.987342	1.012658	1.037975	1.063291	1.088608	1.113924	1.139241	1.139241	1.164557	1.189873	1.215190	1.240506	1.265823	1.291139	1.316456	1.341772	1.367089	1.392405	1.417722	1.443038	1.468354	1.468354	0.936709	0.962025	0.987342	
0.354430	0.354430	0.354430	0.354430	0.379747	0.379747	0.379747	0.379747	0.379747	0.405063	0.405063	0.405063	0.405063	0.405063	0.531646	0.556962	0.582278	0.607595	0.632911	0.658228	0.658228	0.683544	0.708861	0.734177	0.734177	0.759494	0.784810	0.810127	0.835443	0.835443	0.860759	0.886076	0.911392	0.936709	0.962025	0.962025	0.987342	1.012658	1.037975	1.063291	1.088608	1.113924	1.139241	1.139241	1.164557	1.189873	1.215190	1.240506	1.265823	1.291139	1.316456	1.341772	1.367089	1.392405	1.417722	1.443038	1.468354	1.468354	0.936709	0.962025	0.987342	
0.354430	0.354430	0.354430	0.354430	0.379747	0.379747	0.379747	0.379747	0.379747	0.405063	0.405063	0.405063	0.405063	0.405063	0.531646	0.556962	0.582278	0.607595	0.632911	0.658228	0.658228	0.683544	0.708861	0.734177	0.734177	0.759494	0.784810	0.810127	0.835443	0.835443	0.860759	0.886076	0.911392	0.936709	0.962025	0.962025	0.987342	1.012658	1.037975	1.063291	1.088608	1.113924	1.139241	1.139241	1.164557	1.189873	1.215190	1.240506	1.265823	1.291139	1.316456	1.341772	1.367089	1.392405	1.417722	1.443038	1.468354	1.468354	0.936709	0.962025	0.987342	
0.354430	0.354430	0.354430	0.354430	0.379747	0.379747	0.379747	0.379747	0.379747	0.405063	0.405063	0.405063	0.405063	0.405063	0.531646	0.556962	0.582278	0.607595	0.632911	0.658228	0.658228	0.683544	0.708861	0.734177	0.734177	0.759494	0.784810	0.810127	0.835443	0.835443	0.860759	0.886076	0.911392	0.936709	0.962025	0.962025	0.987342	1.012658	1.037975	1.063291	1.088608	1.113924	1.139241	1.139241	1.164557	1.189873	1.215190	1.240506	1.265823	1.291139	1.316456	1.341772	1.367089	1.392405	1.417722	1.443038	1.468354	1.468354	0.936709	0.962025	0.987342	
0.354430	0.354430	0.354430	0.354430	0.379747	0.379747	0.379747	0.379747	0.379747	0.405063	0.405063	0.405063	0.405063	0.405063	0.531646	0.556962	0.582278	0.607595	0.632911	0.658228	0.658228	0.683544	0.708861	0.734177	0.734177	0.759494	0.784810	0.810127	0.835443	0.835443	0.860759	0.886076	0.911392	0.936709	0.962025	0.962025	0.987342	1.012658	1.037975	1.063291	1.088608	1.113924	1.139241	1.139241	1.164557	1.189873	1.215190	1.240506	1.265823	1.291139	1.316456	1.341772	1.367089	1.392405	1.417722	1.443038	1.468354	1.468354	0.936709	0.962025	0.987342	
0.354430	0.354430	0.354430	0.354430	0.379747	0.379747	0.379747	0.379747	0.379747	0.405063	0.405063	0.405063	0.405063	0.405063	0.531646	0.556962	0.582278	0.607595	0.632911	0.658228	0.658228	0.683544	0.708861	0.734177	0.734177	0.759494	0.784810	0.810127	0.835443	0.835443	0.860759	0.886076	0.911392	0.936709	0.962025	0.962025	0.987342	1.012658	1.037975	1.063291	1.088608	1.113924	1.139241	1.139241	1.164557	1.189873	1.215190	1.240506	1.265823	1.291139	1.316456	1.341772	1.367089	1.392405	1.417722	1.443038	1.468354	1.468354	0.936709	0.962025	0.987342	
0.354430	0.354430	0.354430	0.354430	0.379747	0.379747	0.379747	0.379747	0.379747	0.405063	0.405063	0.405063	0.405063	0.405063	0.531646	0.556962	0.582278	0.607595	0.632911	0.658228	0.658228	0.683544	0.708861	0.734177	0.734177	0.759494	0.784810	0.810127	0.835443	0.835443	0.860759	0.886076	0.911392	0.936709	0.962025	0.962025	0.987342	1.012658	1.037975	1.063291	1.088608	1.113924	1.139241	1.139241	1.164557	1.189873	1.215190	1.240506	1.265823	1.291139	1.316456	1.341772	1.367089	1.392405	1.417722	1.443038	1.468354	1.468354	0.936709	0.962025	0.987342	
0.354430	0.354430	0.354430	0.354430	0.379747	0.379747	0.379747	0.379747	0.379747	0.405063	0.405063	0.405063	0.405063	0.405063	0.531646	0.556962	0.582278	0.607595	0.632911	0.658228	0.658228	0.683544	0.708861	0.734177	0.734177	0.759494	0.784810	0.810127	0.835443	0.835443	0.860759	0.886076	0.911392	0.936709	0.962025	0.962025	0.987342	1.012658	1.037975	1.063291	1.088608	1.113924	1.139241	1.139241	1.164557	1.189873	1.215190	1.240506	1.265823	1.291139	1.316456	1.341772	1.367089	1.392405	1.417722	1.443038	1.468354	1.468354	0.936709	0.962025	0.987342	
0.354430	0.354430	0.354430	0.354430	0.379747	0.379747	0.379747	0.379747	0.379747	0.405063	0.405063	0.405063	0.405063	0.405063	-0.607595	-0.658228	-0.708861	0.607595	0.632911	0.658228	0.658228	0.683544	0.708861	0.734177	0.734177	0.759494	0.784810	0.810127	0.835443	0.835443	0.860759	0.886076	0.911392	0.936709	0.962025	0.962025	0.987342	1.012658	1.037975	1.063291	1.088608	1.113924	1.139241	1.139241	1.164557	1.189873	1.215190	1.240506	1.265823	1.291139	1.316456	1.341772	1.367089	1.392405	1.417722	1.443038	1.468354	1.468354	0.936709	0.962025	0.987342	
0.354430	0.354430	0.354430	0.354430	0.379747	0.379747	0.379747	0.379747	0.379747	0.405063	0.405063	0.405063	-0.506329	-0.556962	-0.607595	-0.658228	-0.683544	-0.734177	-0.784810	0.658228	0.658228	0.683544	0.708861	0.734177	0.734177	0.759494	0.784810	0.810127	0.835443	0.835443	0.860759	0.886076	0.911392	0.936709	0.962025	0.962025	0.987342	1.012658	1.037975	1.063291	1.088608	1.113924	1.139241	1.139241	1.164557	1.189873	1.215190	1.240506	1.265823	1.291139	1.316456	1.341772	1.367089	1.392405	1.417722	1.443038	1.468354	1.468354	0.936709	0.962025	0.987342	
0.354430	0.354430	0.354430	0.354430	0.379747	0.379747	0.379747	0.379747	0.379747	0.405063	0.405063	0.405063	-0.506329	-0.556962	-0.582278	-0.632911	-0.683544	-0.734177	-0.784810	0.658228	0.658228	0.683544	0.708861	0.734177	0.734177	0.759494	0.784810	0.810127	0.835443	0.835443	0.860759	0.886076	0.911392	0.936709	0.962025	0.962025	0.987342	1.012658	1.037975	1.063291	1.088608	1.113924	1.139241	1.139241	1.164557	1.189873	1.215190	1.240506	1.265823	1.291139	1.316456	1.341772	1.367089	1.392405	1.417722	1.443038	1.468354	1.468354	0.936709	0.962025	0.987342	
0.354430	0.354430	0.354430	0.354430	0.379747	0.379747	0.379747	0.379747	0.379747	0.405063	0.405063	-0.455696	-0.506329	-0.531646	-0.582278	-0.632911	-0.658228	-0.708861	-0.759494	-0.810127	-0.860759	0.683544	0.708861	0.734177	0.734177	0.759494	0.784810	0.810127	0.835443	0.835443	0.860759	0.886076	0.911392	0.936709	0.962025	0.962025	0.987342	1.012658	1.037975	1.063291	1.088608	1.113924	1.139241	1.139241	1.164557	1.189873	1.215190	1.240506	1.265823	1.291139	1.316456	1.341772	1.367089	1.392405	1.417722	1.443038	1.468354	1.468354	0.936709	0.962025	0.987342	
0.354430	0.354430	0.354430	0.354430	0.379747	0.379747	0.379747	0.379747	0.379747	0.405063	0.405063	-0.455696	-0.481013	-0.531646	-0.582278	-0.607595	-0.658228	-0.708861	-0.734177	-0.784810	-0.835443	-0.886076	-0.936709	0.734177	0.734177	0.759494	0.784810	0.810127	0.835443	0.835443	0.860759	0.886076	0.911392	0.936709	0.962025	0.962025	0.987342	1.012658	1.037975	1.063291	1.088608	1.113924	1.139241	1.139241	1.164557	1.189873	1.215190	1.240506	1.265823	1.291139	1.316456	1.341772	1.367089	1.392405	1.417722	1.443038	1.468354	1.468354	0.936709	0.962025	0.987342	
0.354430	0.354430	0.354430	0.354430	0.379747	0.379747	0.379747	0.379747	0.379747	0.405063	0.405063	-0.430380	-0.481013	-0.506329	-0.556962	-0.607595	-0.632911	-0.683544	-0.734177	-0.784810	-0.810127	-0.860759	-0.911392	-0.962025	0.734177	0.759494	0.784810	0.810127	0.835443	0.835443	0.860759	0.886076	0.911392	0.936709	0.962025	0.962025	0.987342	1.012658	1.037975	1.063291	1.088608	1.113924	1.139241	1.139241	1.164557	1.189873	1.215190	1.240506	1.265823	1.291139	1.316456	1.341772	1.367089	1.392405	1.417722	1.443038	1.468354	1.468354	0.936709	0.962025	0.987342	
0.354430	0.354430	0.354430	0.354430	0.379747	0.379747	0.379747	0.379747	0.379747	0.405063	-0.379747	-0.430380	-0.481013	-0.506329	-0.556962	-0.582278	-0.632911	-0.683544	-0.708861	-0.759494	-0.810127	-0.860759	-0.911392	-0.962025	0.734177	0.759494	0.784810	0.810127	0.835443	0.835443	0.860759	0.886076	0.911392	0.936709	0.962025	0.962025	0.987342	1.012658	1.037975	1.063291	1.088608	1.113924	1.139241	1.139241	1.164557	1.189873	1.215190	1.240506	1.265823	1.291139	1.316456	1.341772	1.367089	1.392405	1.417722	1.443038	1.468354	1.468354	0.936709	0.962025	0.987342	
0.354430	0.354430	0.354430	0.354430	0.379747	0.379747	0.379747	0.379747	0.379747	0.405063	-0.379747	-0.430380	-0.455696	-0.506329	-0.531646	-0.582278	-0.607595	-0.658228	-0.708861	-0.759494	-0.784810	-0.835443	-0.886076	-0.936709	-0.987342	-1.037975	0.784810	0.810127	0.835443	0.835443	0.860759	0.886076	0.911392	0.936709	0.962025	0.962025	0.987342	1.012658	1.037975	1.063291	1.088608	1.113924	1.139241	1.139241	1.164557	1.189873	1.215190	1.240506	1.265823	1.291139	1.316456	1.341772	1.367089	1.392405	1.417722	1.443038	1.468354	1.468354	0.936709	0.962025	0.987342	
0.354430	0.354430	0.354430	0.354430	0.379747	0.379747	0.379747	0.379747	0.379747	-0.329114	-0.379747	-0.405063	-0.455696	-0.481013	-0.531646	-0.556962	-0.607595	-0.658228	-0.683544	-0.734177	-0.784810	-0.835443	-0.860759	-0.911392	-0.962025	-1.012658	0.784810	0.810127	0.835443	0.835443	0.860759	0.886076	0.911392	0.936709	0.962025	0.962025	0.987342	1.012658	1.037975	1.063291	1.088608	1.113924	1.139241	1.139241	1.164557	1.189873	1.215190	1.240506	1.265823	1.291139	1.316456	1.341772	1.367089	1.392405	1.417722	1.443038	1.468354	1.468354	0.936709	0.962025	0.987342	
0.354430	0.354430	0.354430	0.354430	0.379747	0.379747	0.379747	0.379747	0.379747	-0.329114	-0.379747	-0.405063	-0.455696	-0.481013	-0.531646	-0.556962	-0.607595	-0.632911	-0.683544	-0.734177	-0.759494	-0.810127	-0.860759	-0.911392	-0.962025	-1.012658	-1.063291	0.810127	0.835443	0.835443	0.860759	0.886076	0.911392	0.936709	0.962025	0.962025	0.987342	1.012658	1.037975	1.063291	1.088608	1.113924	1.139241	1.139241	1.164557	1.189873	1.215190	1.240506	1.265823	1.291139	1.316456	1.341772	1.367089	1.392405	1.417722	1.443038	1.468354	1.468354	0.936709	0.962025	0.987342	
0.354430	0.354430	0.354430	0.354430	0.379747	0.379747	0.379747	0.379747	0.379747	-0.329114	-0.354430	-0.405063	-0.430380	-0.481013	-0.506329	-0.556962	-0.582278	-0.632911	-0.658228	-0.708861	-0.759494	-0.784810	-0.835443	-0.886076	-0.936709	-0.987342	-1.037975	0.810127	0.835443	0.835443	0.860759	0.886076	0.911392	0.936709	0.962025	0.962025	0.987342	1.012658	1.037975	1.063291	1.088608	1.113924	1.139241	1.139241	1.164557	1.189873	1.215190	1.240506	1.265823	1.291139	1.316456	1.341772	1.367089	1.392405	1.417722	1.443038	1.468354	1.468354	0.936709	0.962025	0.987342	
0.354430	0.354430	0.354430	0.354430	0.379747	0.379747	0.379747	0.379747	-0.278481	-0.329114	-0.354430	-0.405063	-0.430380	-0.455696	-0.506329	-0.531646	-0.582278	-0.607595	-0.658228	-0.708861	-0.734177	-0.784810	-0.835443	-0.860759	-0.911392	-0.962025	-1.037975	-1.088608	0.835443	0.835443	0.860759	0.886076	0.911392	0.936709	0.962025	0.962025	0.987342	1.012658	1.037975	1.063291	1.088608	1.113924	1.139241	1.139241	1.164557	1.189873	1.215190	1.240506	1.265823	1.291139	1.316456	1.341772	1.367089	1.392405	1.417722	1.443038	1.468354	1.468354	0.936709	0.962025	0.987342	
0.354430	0.354430	0.354430	0.354430	0.379747	0.379747	0.379747	0.379747	-0.278481	-0.329114	-0.354430	-0.379747	-0.430380	-0.455696	-0.506329	-0.531646	-0.556962	-0.607595	-0.658228	-0.683544	-0.734177	-0.759494	-0.810127	-0.860759	-0.911392	-0.962025	-1.012658	-1.063291	-1.139241	0.835443	0.860759	0.886076	0.911392	0.936709	0.962025	0.962025	0.987342	1.012658	1.037975	1.063291	1.088608	1.113924	1.139241	1.139241	1.164557	1.189873	1.215190	1.240506	1.265823	1.291139	1.316456	1.341772	1.367089	1.392405	1.417722	1.443038	1.468354	1.468354	0.936709	0.962025	0.987342	
0.354430	0.354430	0.354430	0.354430	0.379747	0.379747	0.379747	0.379747	-0.278481	-0.303797	-0.354430	-0.379747	-0.405063	-0.455696	-0.481013	-0.531646	-0.556962	-0.607595	-0.632911	-0.683544	-0.708861	-0.759494	-0.810127	-0.835443	-0.886076	-0.936709	-0.987342	-1.063291	-1.113924	0.835443	0.860759	0.886076	0.911392	0.936709	0.962025	0.962025	0.987342	1.012658	1.037975	1.063291	1.088608	1.113924	1.139241	1.139241	1.164557	1.189873	1.215190	1.240506	1.265823	1.291139	1.316456	1.341772	1.367089	1.392405	1.417722	1.443038	1.468354	1.468354	0.936709	0.962025	0.987342	
0.354430	0.354430	0.354430	0.354430	0.379747	0.379747	0.379747	0.379747	-0.278481	-0.303797	-0.329114	-0.379747	-0.405063	-0.455696	-0.481013	-0.506329	-0.556962	-0.582278	-0.632911	-0.658228	-0.708861	-0.734177	-0.784810	-0.835443	-0.886076	-0.936709	-0.987342	-1.037975	-1.088608	0.835443	0.860759	0.886076	0.911392	0.936709	0.962025	0.962025	0.987342	1.012658	1.037975	1.063291	1.088608	1.113924	1.139241	1.139241	1.164557	1.189873	1.215190	1.240506	1.265823	1.291139	1.316456	1.341772	1.367089	1.392405	1.417722	1.443038	1.468354	1.468354	0.936709	0.962025	0.987342	
0.354430	0.354430	0.354430	0.354430	0.379747	0.379747	0.379747	0.379747	-0.278481	-0.303797	-0.329114	-0.379747	-0.405063	-0.430380	-0.481013	-0.506329	-0.531646	-0.582278	-0.607595	-0.658228	-0.683544	-0.734177	-0.784810	-0.810127	-0.860759	-0.911392	-0.962025	-1.012658	-1.088608	-1.164557	0.860759	0.886076	0.911392	0.936709	0.962025	0.962025	0.987342	1.012658	1.037975	1.063291	1.088608	1.113924	1.139241	1.139241	1.164557	1.189873	1.215190	1.240506	1.265823	1.291139	1.316456	1.341772	1.367089	1.392405	1.417722	1.443038	1.468354	1.468354	0.936709	0.962025	0.987342	
0.354430	0.354430	0.354430	0.354430	0.379747	0.379747	0.379747	-0.303797	-0.303797	-0.303797	-0.329114	-0.354430	-0.405063	-0.430380	-0.455696	-0.506329	-0.531646	-0.556962	-0.607595	-0.632911	-0.683544	-0.708861	-0.759494	-0.810127	-0.860759	-0.886076	-0.936709	-1.012658	-1.063291	-1.139241	0.860759	0.886076	0.911392	0.936709	0.962025	0.962025	0.987342	1.012658	1.037975	1.063291	1.088608	1.113924	1.139241	1.139241	1.164557	1.189873	1.215190	1.240506	1.265823	1.291139	1.316456	1.341772	1.367089	1.392405	1.417722	1.443038	1.468354	1.468354	0.936709	0.962025	0.987342	
0.354430	0.354430	0.354430	0.354430	0.379747	0.379747	0.379747	-0.303797	-0.303797	-0.303797	-0.329114	-0.354430	-0.379747	-0.430380	-0.455696	-0.481013	-0.531646	-0.556962	-0.607595	-0.632911	-0.683544	-0.708861	-0.759494	-0.784810	-0.835443	-0.886076	-0.936709	-0.987342	-1.037975	-1.113924	0.860759	0.886076	0.911392	0.936709	0.962025	0.962025	0.987342	1.012658	1.037975	1.063291	1.088608	1.113924	1.139241	1.139241	1.164557	1.189873	1.215190	1.240506	1.265823	1.291139	1.316456	1.341772	1.367089	1.392405	1.417722	1.443038	1.468354	1.468354	0.936709	0.962025	0.987342	
0.354430	0.354430	0.354430	0.354430	0.379747	0.379747	0.379747	-0.303797	-0.303797	-0.303797	-0.329114	-0.354430	-0.379747	-0.405063	-0.455696	-0.481013	-0.506329	-0.556962	-0.582278	-0.632911	-0.658228	-0.708861	-0.734177	-0.784810	-0.835443	-0.860759	-0.911392	-0.962025	-1.037975	-1.113924	0.860759	0.886076	0.911392	0.936709	0.962025	0.962025	0.987342	1.012658	1.037975	1.063291	1.088608	1.113924	1.139241	1.139241	1.164557	1.189873	1.215190	1.240506	1.265823	1.291139	1.316456	1.341772	1.367089	1.392405	1.417722	1.443038	1.468354	1.468354	0.936709	0.962025	0.987342	
0.354430	0.354430	0.354430	0.354430	0.379747	0.379747	-0.303797	-0.303797	-0.303797	-0.303797	-0.303797	-0.354430	-0.379747	-0.405063	-0.455696	-0.481013	-0.506329	-0.531646	-0.582278	-0.607595	-0.658228	-0.683544	-0.734177	-0.759494	-0.810127	-0.860759	-0.911392	-0.962025	-1.012658	-1.088608	0.860759	0.886076	0.911392	0.936709	0.962025	0.962025	0.987342	1.012658	1.037975	1.063291	1.088608	1.113924	1.139241	1.139241	1.164557	1.189873	1.215190	1.240506	1.265823	1.291139	1.316456	1.341772	1.367089	1.392405	1.417722	1.443038	1.468354	1.468354	0.936709	0.962025	0.987342	
0.354430	0.354430	0.354430	0.354430	0.379747	0.379747	-0.329114	-0.329114	-0.329114	-0.329114	-0.329114	-0.354430	-0.379747	-0.405063	-0.430380	-0.481013	-0.506329	-0.531646	-0.582278	-0.607595	-0.632911	-0.683544	-0.708861	-0.759494	-0.810127	-0.835443	-0.886076	-0.936709	-1.012658	-1.088608	0.860759	0.886076	0.911392	0.936709	0.962025	0.962025	0.987342	1.012658	1.037975	1.063291	1.088608	1.113924	1.139241	1.139241	1.164557	1.189873	1.215190	1.240506	1.265823	1.291139	1.316456	1.341772	1.367089	1.392405	1.417722	1.443038	1.468354	1.468354	0.936709	0.962025	0.987342	
0.354430	0.354430	0.354430	0.354430	0.379747	-0.329114	-0.329114	-0.329114	-0.329114	-0.329114	-0.329114	-0.329114	-0.379747	-0.405063	-0.430380	-0.455696	-0.506329	-0.531646	-0.556962	-0.607595	-0.632911	-0.658228	-0.708861	-0.734177	-0.784810	-0.835443	-0.886076	-0.936709	-0.987342	-1.063291	-1.164557	0.886076	0.911392	0.936709	0.962025	0.962025	0.987342	1.012658	1.037975	1.063291	1.088608	1.113924	1.139241	1.139241	1.164557	1.189873	1.215190	1.240506	1.265823	1.291139	1.316456	1.341772	1.367089	1.392405	1.417722	1.443038	1.468354	1.468354	0.936709	0.962025	0.987342	
0.354430	0.354430	0.354430	0.354430	-0.329114	-0.329114	-0.329114	-0.329114	-0.329114	-0.329114	-0.329114	-0.329114	-0.354430	-0.405063	-0.430380	-0.455696	-0.481013	-0.531646	-0.556962	-0.582278	-0.632911	-0.658228	-0.683544	-0.734177	-0.784810	-0.810127	-0.860759	-0.911392	-0.987342	-1.037975	-1.164557	0.886076	0.911392	0.936709	0.962025	0.962025	0.987342	1.012658	1.037975	1.063291	1.088608	1.113924	1.139241	1.139241	1.164557	1.189873	1.215190	1.240506	1.265823	1.291139	1.316456	1.341772	1.367089	1.392405	1.417722	1.443038	1.468354	1.468354	0.936709	0.962025	0.987342	
-0.329114	-0.329114	-0.329114	-0.329114	-0.329114	-0.329114	-0.329114	-0.329114	-0.329114	-0.329114	-0.329114	-0.329114	-0.354430	-0.379747	-0.430380	-0.455696	-0.481013	-0.506329	-0.556962	-0.582278	-0.607595	-0.658228	-0.683544	-0.734177	-0.759494	-0.810127	-0.860759	-0.911392	-0.962025	-1.037975	-1.139241	0.886076	0.911392	0.936709	0.962025	0.962025	0.987342	1.012658	1.037975	1.063291	1.088608	1.113924	1.139241	1.139241	1.164557	1.189873	1.215190	1.240506	1.265823	1.291139	1.316456	1.341772	1.367089	1.392405	1.417722	1.443038	1.468354	1.468354	0.936709	0.962025	0.987342	
-0.329114	-0.329114	-0.329114	-0.329114	-0.329114	-0.329114	-0.329114	-0.329114	-0.329114	-0.329114	-0.329114	-0.329114	-0.354430	-0.379747	-0.405063	-0.455696	-0.481013	-0.506329	-0.531646	-0.582278	-0.607595	-0.632911	-0.683544	-0.708861	-0.759494	-0.810127	-0.835443	-0.886076	-0.936709	-1.012658	-1.113924	0.886076	0.911392	0.936709	0.962025	0.962025	0.987342	1.012658	1.037975	1.063291	1.088608	1.113924	1.139241	1.139241	1.164557	1.189873	1.215190	1.240506	1.265823	1.291139	1.316456	1.341772	1.367089	1.392405	1.417722	1.443038	1.468354	1.468354	0.936709	0.962025	0.987342	
-0.329114	-0.329114	-0.329114	-0.329114	-0.329114	-0.329114	-0.329114	-0.329114	-0.329114	-0.329114	-0.329114	-0.329114	-0.354430	-0.379747	-0.405063	-0.430380	-0.481013	-0.506329	-0.531646	-0.556962	-0.607595	-0.632911	-0.658228	-0.708861	-0.734177	-0.784810	-0.835443	-0.886076	-0.936709	-1.012658	-1.113924	0.886076	0.911392	0.936709	0.962025	0.962025	0.987342	1.012658	1.037975	1.063291	1.088608	1.113924	1.139241	1.139241	1.164557	1.189873	1.215190	1.240506	1.265823	1.291139	1.316456	1.341772	1.367089	1.392405	1.417722	1.443038	1.468354	1.468354	0.936709	0.962025	0.987342	
-0.354430	-0.354430	-0.354430	-0.354430	-0.354430	-0.354430	-0.354430	-0.354430	-0.354430	-0.354430	-0.354430	-0.354430	-0.354430	-0.379747	-0.405063	-0.430380	-0.455696	-0.481013	-0.531646	-0.556962	-0.582278	-0.632911	-0.658228	-0.708861	-0.734177	-0.784810	-0.810127	-0.860759	-0.911392	-0.987342	-1.088608	0.886076	0.911392	0.936709	0.962025	0.962025	0.987342	1.012658	1.037975	1.063291	1.088608	1.113924	1.139241	1.139241	1.164557	1.189873	1.215190	1.240506	1.265823	1.291139	1.316456	1.341772	1.367089	1.392405	1.417722	1.443038	1.468354	1.468354	0.936709	0.962025	0.987342	
-0.354430	-0.354430	-0.354430	-0.354430	-0.354430	-0.354430	-0.354430	-0.354430	-0.354430	-0.354430	-0.354430	-0.354430	-0.354430	-0.379747	-0.405063	-0.430380	-0.455696	-0.481013	-0.506329	-0.556962	-0.582278	-0.607595	-0.658228	-0.683544	-0.734177	-0.759494	-0.810127	-0.860759	-0.911392	-0.987342	-1.088608	0.886076	0.911392	0.936709	0.962025	0.962025	0.987342	1.012658	1.037975	1.063291	1.088608	1.113924	1.139241	1.139241	1.164557	1.189873	1.215190	1.240506	1.265823	1.291139	1.316456	1.341772	1.367089	1.392405	1.417722	1.443038	1.468354	1.468354	0.936709	0.962025	0.987342	
-0.354430	-0.354430	-0.354430	-0.354430	-0.354430	-0.354430	-0.354430	-0.354430	-0.354430	-0.354430	-0.354430	-0.354430	-0.354430	-0.354430	-0.405063	-0.430380	-0.455696	-0.481013	-0.506329	-0.531646	-0.582278	-0.607595	-0.632911	-0.683544	-0.708861	-0.759494	-0.784810	-0.835443	-0.911392	-0.962025	-1.063291	0.886076	0.911392	0.936709	0.962025	0.962025	0.987342	1.012658	1.037975	1.063291	1.088608	1.113924	1.139241	1.139241	1.164557	1.189873	1.215190	1.240506	1.265823	1.291139	1.316456	1.341772	1.367089	1.392405	1.417722	1.443038	1.468354	1.468354	0.936709	0.962025	0.987342	
-0.354430	-0.354430	-0.354430	-0.354430	-0.354430	-0.354430	-0.354430	-0.354430	-0.354430	-0.354430	-0.354430	-0.354430	-0.354430	-0.354430	-0.379747	-0.405063	-0.455696	-0.481013	-0.506329	-0.531646	-0.556962	-0.607595	-0.632911	-0.658228	-0.708861	-0.734177	-0.784810	-0.835443	-0.886076	-0.962025	-1.063291	0.886076	0.911392	0.936709	0.962025	0.962025	0.987342	1.012658	1.037975	1.063291	1.088608	1.113924	1.139241	1.139241	1.164557	1.189873	1.215190	1.240506	1.265823	1.291139	1.316456	1.341772	1.367089	1.392405	1.417722	1.443038	1.468354	1.468354	0.936709	0.962025	0.987342	
-0.354430	-0.354430	-0.354430	-0.354430	-0.354430	-0.354430	-0.354430	-0.354430	-0.354430	-0.354430	-0.354430	-0.354430	-0.354430	-0.354430	-0.379747	-0.405063	-0.430380	-0.455696	-0.506329	-0.531646	-0.556962	-0.582278	-0.632911	-0.658228	-0.708861	-0.734177	-0.784810	-0.835443	-0.886076	-0.936709	-1.037975	-1.063291	0.911392	0.936709	0.962025	0.962025	0.987342	1.012658	1.037975	1.063291	1.088608	1.113924	1.139241	1.139241	1.164557	1.189873	1.215190	1.240506	1.265823	1.291139	1.316456	1.341772	1.367089	1.392405	1.417722	1.443038	1.468354	1.468354	0.936709	0.962025	0.987342	
-0.379747	-0.379747	-0.379747	-0.379747	-0.379747	-0.379747	-0.379747	-0.379747	-0.379747	-0.379747	-0.379747	-0.379747	-0.379747	-0.379747	-0.379747	-0.405063	-0.430380	-0.455696	-0.481013	-0.531646	-0.556962	-0.582278	-0.607595	-0.658228	-0.683544	-0.734177	-0.759494	-0.810127	-0.860759	-0.936709	-1.037975	-1.037975	0.911392	0.936709	0.962025	0.962025	0.987342	1.012658	1.037975	1.063291	1.088608	1.113924	1.139241	1.139241	1.164557	1.189873	1.215190	1.240506	1.265823	1.291139	1.316456	1.341772	1.367089	1.392405	1.417722	1.443038	1.468354	1.468354	0.936709	0.962025	0.987342	
-0.379747	-0.379747	-0.379747	-0.379747	-0.379747	-0.379747	-0.379747	-0.379747	-0.379747	-0.379747	-0.379747	-0.379747	-0.379747	-0.379747	-0.379747	-0.405063	-0.430380	-0.455696	-0.481013	-0.506329	-0.556962	-0.582278	-0.607595	-0.632911	-0.683544	-0.708861	-0.759494	-0.810127	-0.860759	-0.911392	-1.012658	-1.037975	0.911392	0.936709	0.962025	0.962025	0.987342	1.012658	1.037975	1.063291	1.088608	1.113924	1.139241	1.139241	1.164557	1.189873	1.215190	1.240506	1.265823	1.291139	1.316456	1.341772	1.367089	1.392405	1.417722	1.443038	1.468354	1.468354	0.936709	0.962025	0.987342	
-0.379747	-0.379747	-0.379747	-0.379747	-0.379747	-0.379747	-0.379747	-0.379747	-0.379747	-0.379747	-0.379747	-0.379747	-0.379747	-0.379747	-0.379747	-0.405063	-0.430380	-0.455696	-0.481013	-0.506329	-0.531646	-0.582278	-0.607595	-0.632911	-0.683544	-0.708861	-0.759494	-0.784810	-0.835443	-0.911392	-1.012658	-1.037975	0.911392	0.936709	0.962025	0.962025	0.987342	1.012658	1.037975	1.063291	1.088608	1.113924	1.139241	1.139241	1.164557	1.189873	1.215190	1.240506	1.265823	1.291139	1.316456	1.341772	1.367089	1.392405	1.417722	1.443038	1.468354	1.468354	0.936709	0.962025	0.987342	
-0.379747	-0.379747	-0.379747	-0.379747	-0.379747	-0.379747	-0.379747	-0.379747	-0.379747	-0.379747	-0.379747	-0.379747	-0.379747	-0.379747	-0.379747	-0.379747	-0.430380	-0.455696	-0.481013	-0.506329	-0.531646	-0.556962	-0.582278	-0.632911	-0.658228	-0.708861	-0.734177	-0.784810	-0.835443	-0.886076	-0.987342	-1.012658	0.911392	0.936709	0.962025	0.962025	0.987342	1.012658	1.037975	1.063291	1.088608	1.113924	1.139241	1.139241	1.164557	1.189873	1.215190	1.240506	1.265823	1.291139	1.316456	1.341772	1.367089	1.392405	1.417722	1.443038	1.468354	1.468354	0.936709	0.962025	0.987342	
-0.379747	-0.379747	-0.379747	-0.379747	-0.379747	-0.379747	-0.379747	-0.379747	-0.379747	-0.379747	-0.379747	-0.379747	-0.379747	-0.379747	-0.379747	-0.379747	-0.405063	-0.430380	-0.481013	-0.506329	-0.531646	-0.556962	-0.582278	-0.632911	-0.658228	-0.683544	-0.734177	-0.784810	-0.835443	-0.886076	-0.987342	-1.012658	-1.037975	0.936709	0.962025	0.962025	0.987342	1.012658	1.037975	1.063291	1.088608	1.113924	1.139241	1.139241	1.164557	1.189873	1.215190	1.240506	1.265823	1.291139	1.316456	1.341772	1.367089	1.392405	1.417722	1.443038	1.468354	1.468354	0.936709	0.962025	0.987342	
-0.379747	-0.379747	-0.379747	-0.379747	-0.379747	-0.379747	-0.379747	-0.379747	-0.379747	-0.379747	-0.379747	-0.379747	-0.379747	-0.379747	-0.379747	-0.379747	-0.405063	-0.430380	-0.455696	-0.481013	-0.531646	-0.556962	-0.582278	-0.607595	-0.658228	-0.683544	-0.734177	-0.759494	-0.810127	-0.860759	-0.962025	-0.987342	-1.037975	0.936709	0.962025	0.962025	0.987342	1.012658	1.037975	1.063291	1.088608	1.113924	1.139241	1.139241	1.164557	1.189873	1.215190	1.240506	1.265823	1.291139	1.316456	1.341772	1.367089	1.392405	1.417722	1.443038	1.468354	1.468354	0.936709	0.962025	0.987342	
-0.379747	-0.379747	-0.379747	-0.379747	-0.379747	-0.379747	-0.379747	-0.379747	-0.379747	-0.379747	-0.379747	-0.379747	-0.379747	-0.379747	-0.379747	-0.379747	-0.405063	-0.430380	-0.455696	-0.481013	-0.506329	-0.556962	-0.582278	-0.607595	-0.632911	-0.683544	-0.708861	-0.759494	-0.810127	-0.860759	-0.962025	-0.987342	-1.012658	0.936709	0.962025	0.962025	0.987342	1.012658	1.037975	1.063291	1.088608	1.113924	1.139241	1.139241	1.164557	1.189873	1.215190	1.240506	1.265823	1.291139	1.316456	1.341772	1.367089	1.392405	1.417722	1.443038	1.468354	1.468354	0.936709	0.962025	0.987342	
-0.405063	-0.405063	-0.405063	-0.405063	-0.405063	-0.405063	-0.405063	-0.405063	-0.405063	-0.405063	-0.405063	-0.405063	-0.405063	-0.405063	-0.405063	-0.405063	-0.405063	-0.430380	-0.455696	-0.481013	-0.506329	-0.531646	-0.556962	-0.607595	-0.632911	-0.658228	-0.708861	-0.759494	-0.784810	-0.860759	-0.936709	-0.987342	-1.012658	0.936709	0.962025	0.962025	0.987342	1.012658	1.037975	1.063291	1.088608	1.113924	1.139241	1.139241	1.164557	1.189873	1.215190	1.240506	1.265823	1.291139	1.316456	1.341772	1.367089	1.392405	1.417722	1.443038	1.468354	1.468354	0.936709	0.962025	0.987342	
-0.405063	-0.405063	-0.405063	-0.405063	-0.405063	-0.405063	-0.405063	-0.405063	-0.405063	-0.405063	-0.405063	-0.405063	-0.405063	-0.405063	-0.405063	-0.405063	-0.405063	-0.430380	-0.455696	-0.481013	-0.506329	-0.531646	-0.556962	-0.582278	-0.632911	-0.658228	-0.708861	-0.734177	-0.784810	-0.835443	-0.936709	-0.962025	-1.012658	0.936709	0.962025	0.962025	0.987342	1.012658	1.037975	1.063291	1.088608	1.113924	1.139241	1.139241	1.164557	1.189873	1.215190	1.240506	1.265823	1.291139	1.316456	1.341772	1.367089	1.392405	1.417722	1.443038	1.468354	1.468354	0.936709	0.962025	0.987342	
-0.405063	-0.405063	-0.405063	-0.405063	-0.405063	-0.405063	-0.405063	-0.405063	-0.405063	-0.405063	-0.405063	-0.405063	-0.405063	-0.405063	-0.405063	-0.405063	-0.405063	-0.405063	-0.430380	-0.481013	-0.506329	-0.531646	-0.556962	-0.582278	-0.607595	-0.658228	-0.683544	-0.734177	-0.784810	-0.835443	-0.936709	-0.962025	-0.987342	-1.037975	0.962025	0.962025	0.987342	1.012658	1.037975	1.063291	1.088608	1.113924	1.139241	1.139241	1.164557	1.189873	1.215190	1.240506	1.265823	1.291139	1.316456	1.341772	1.367089	1.392405	1.417722	1.443038	1.468354	1.468354	0.936709	0.962025	0.987342	
-0.405063	-0.405063	-0.405063	-0.405063	-0.405063	-0.405063	-0.405063	-0.405063	-0.405063	-0.405063	-0.405063	-0.405063	-0.405063	-0.405063	-0.405063	-0.405063	-0.405063	-0.405063	-0.430380	-0.455696	-0.481013	-0.531646	-0.556962	-0.582278	-0.607595	-0.658228	-0.683544	-0.734177	-0.759494	-0.835443	-0.911392	-0.962025	-0.987342	-1.012658	0.962025	0.962025	0.987342	1.012658	1.037975	1.063291	1.088608	1.113924	1.139241	1.139241	1.164557	1.189873	1.215190	1.240506	1.265823	1.291139	1.316456	1.341772	1.367089	1.392405	1.417722	1.443038	1.468354	1.468354	0.936709	0.962025	0.987342	
-0.405063	-0.405063	-0.405063	-0.405063	-0.405063	-0.405063	-0.405063	-0.405063	-0.405063	-0.405063	-0.405063	-0.405063	-0.405063	-0.405063	-0.405063	-0.405063	-0.405063	-0.405063	-0.430380	-0.455696	-0.481013	-0.506329	-0.531646	-0.582278	-0.607595	-0.632911	-0.683544	-0.708861	-0.759494	-0.810127	-0.911392	-0.936709	-0.987342	-1.012658	0.962025	0.962025	0.987342	1.012658	1.037975	1.063291	1.088608	1.113924	1.139241	1.139241	1.164557	1.189873	1.215190	1.240506	1.265823	1.291139	1.316456	1.341772	1.367089	1.392405	1.417722	1.443038	1.468354	1.468354	0.936709	0.962025	0.987342	
-0.405063	-0.405063	-0.405063	-0.405063	-0.405063	-0.405063	-0.405063	-0.405063	-0.405063	-0.405063	-0.405063	-0.405063	-0.405063	-0.405063	-0.405063	-0.405063	-0.405063	-0.405063	-0.430380	-0.455696	-0.481013	-0.506329	-0.531646	-0.556962	-0.607595	-0.632911	-0.658228	-0.708861	-0.759494	-0.810127	-0.886076	-0.936709	-0.962025	-1.012658	0.962025	0.962025	0.987342	1.012658	1.037975	1.063291	1.088608	1.113924	1.139241	1.139241	1.164557	1.189873	1.215190	1.240506	1.265823	1.291139	1.316456	1.341772	1.367089	1.392405	1.417722	1.443038	1.468354	1.468354	0.936709	0.962025	0.987342	
-0.405063	-0.405063	-0.405063	-0.405063	-0.405063	-0.405063	-0.405063	-0.405063	-0.405063	-0.405063	-0.405063	-0.405063	-0.405063	-0.405063	-0.405063	-0.405063	-0.405063	-0.405063	-0.430380	-0.455696	-0.481013	-0.506329	-0.531646	-0.556962	-0.582278	-0.632911	-0.658228	-0.708861	-0.734177	-0.784810	-0.886076	-0.936709	-0.962025	-0.987342	-1.037975	0.962025	0.987342	1.012658	1.037975	1.063291	1.088608	1.113924	1.139241	1.139241	1.164557	1.189873	1.215190	1.240506	1.265823	1.291139	1.316456	1.341772	1.367089	1.392405	1.417722	1.443038	1.468354	1.468354	0.936709	0.962025	0.987342	
-0.430380	-0.430380	-0.430380	-0.430380	-0.430380	-0.430380	-0.430380	-0.430380	-0.430380	-0.430380	-0.430380	-0.430380	-0.430380	-0.430380	-0.430380	-0.430380	-0.430380	-0.430380	-0.430380	-0.455696	-0.481013	-0.506329	-0.531646	-0.556962	-0.582278	-0.607595	-0.658228	-0.683544	-0.734177	-0.784810	-0.886076	-0.936709	-0.962025	-0.987342	-1.012658	0.962025	0.987342	1.012658	1.037975	1.063291	1.088608	1.113924	1.139241	1.139241	1.164557	1.189873	1.215190	1.240506	1.265823	1.291139	1.316456	1.341772	1.367089	1.392405	1.417722	1.443038	1.468354	1.468354	0.936709	0.962025	0.987342	
-0.430380	-0.430380	-0.430380	-0.430380	-0.430380	-0.430380	-0.430380	-0.430380	-0.430380	-0.430380	-0.430380	-0.430380	-0.430380	-0.430380	-0.430380	-0.430380	-0.430380	-0.430380	-0.430380	-0.430380	-0.455696	-0.481013	-0.506329	-0.556962	-0.582278	-0.607595	-0.632911	-0.683544	-0.734177	-0.784810	-0.860759	-0.911392	-0.962025	-0.987342	-1.012658	0.962025	0.987342	1.012658	1.037975	1.063291	1.088608	1.113924	1.139241	1.139241	1.164557	1.189873	1.215190	1.240506	1.265823	1.291139	1.316456	1.341772	1.367089	1.392405	1.417722	1.443038	1.468354	1.468354	0.936709	0.962025	0.987342	
-0.430380	-0.430380	-0.430380	-0.430380	-0.430380	-0.430380	-0.430380	-0.430380	-0.430380	-0.430380	-0.430380	-0.430380	-0.430380	-0.430380	-0.430380	-0.430380	-0.430380	-0.430380	-0.430380	-0.430380	-0.455696	-0.481013	-0.506329	-0.556962	-0.582278	-0.607595	-0.632911	-0.683544	-0.734177	-0.759494	-0.860759	-0.911392	-0.936709	-0.987342	-1.012658	-1.037975	0.987342	1.012658	1.037975	1.063291	1.088608	1.113924	1.139241	1.139241	1.164557	1.189873	1.215190	1.240506	1.265823	1.291139	1.316456	1.341772	1.367089	1.392405	1.417722	1.443038	1.468354	1.468354	0.936709	0.962025	0.987342	
-0.430380	-0.430380	-0.430380	-0.430380	-0.430380	-0.430380	-0.430380	-0.430380	-0.430380	-0.430380	-0.430380	-0.430380	-0.430380	-0.430380	-0.430380	-0.430380	-0.430380	-0.430380	-0.430380	-0.430380	-0.455696	-0.481013	-0.506329	-0.531646	-0.556962	-0.607595	-0.632911	-0.683544	-0.708861	-0.759494	-0.860759	-0.911392	-0.936709	-0.962025	-1.012658	-1.037975	0.987342	1.012658	1.037975	1.063291	1.088608	1.113924	1.139241	1.139241	1.164557	1.189873	1.215190	1.240506	1.265823	1.291139	1.316456	1.341772	1.367089	1.392405	1.417722	1.443038	1.468354	1.468354	0.936709	0.962025	0.987342	
-0.430380	-0.430380	-0.430380	-0.430380	-0.430380	-0.430380	-0.430380	-0.430380	-0.430380	-0.430380	-0.430380	-0.430380	-0.430380	-0.430380	-0.430380	-0.430380	-0.430380	-0.430380	-0.430380	-0.430380	-0.455696	-0.481013	-0.506329	-0.531646	-0.556962	-0.582278	-0.632911	-0.658228	-0.708861	-0.759494	-0.835443	-0.911392	-0.936709	-0.962025	-0.987342	-1.012658	0.987342	1.012658	1.037975	1.063291	1.088608	1.113924	1.139241	1.139241	1.164557	1.189873	1.215190	1.240506	1.265823	1.291139	1.316456	1.341772	1.367089	1.392405	1.417722	1.443038	1.468354	1.468354	0.936709	0.962025	0.987342	
-0.430380	-0.430380	-0.430380	-0.430380	-0.430380	-0.430380	-0.430380	-0.430380	-0.430380	-0.430380	-0.430380	-0.430380	-0.430380	-0.430380	-0.430380	-0.430380	-0.430380	-0.430380	-0.430380	-0.430380	-0.455696	-0.481013	-0.506329	-0.531646	-0.556962	-0.582278	-0.607595	-0.658228	-0.708861	-0.759494	-0.835443	-0.886076	-0.911392	-0.962025	-0.987342	-1.012658	0.987342	1.012658	1.037975	1.063291	1.088608	1.113924	1.139241	1.139241	1.164557	1.189873	1.215190	1.240506	1.265823	1.291139	1.316456	1.341772	1.367089	1.392405	1.417722	1.443038	1.468354	1.468354	0.936709	0.962025	0.987342	
-0.430380	-0.430380	-0.430380	-0.430380	-0.430380	-0.430380	-0.430380	-0.430380	-0.430380	-0.430380	-0.430380	-0.430380	-0.430380	-0.430380	-0.430380	-0.430380	-0.430380	-0.430380	-0.430380	-0.430380	-0.455696	-0.481013	-0.481013	-0.531646	-0.556962	-0.582278	-0.607595	-0.658228	-0.683544	-0.734177	-0.835443	-0.886076	-0.911392	-0.936709	-0.987342	-1.012658	-1.037975	1.012658	1.037975	1.063291	1.088608	1.113924	1.139241	1.139241	1.164557	1.189873	1.215190	1.240506	1.265823	1.291139	1.316456	1.341772	1.367089	1.392405	1.417722	1.443038	1.468354	1.468354	0.936709	0.962025	0.987342	
